<?xml version="1.0" encoding="UTF-8"?>
<COLLADA xmlns="http://www.collada.org/2005/11/COLLADASchema" version="1.4.1">
    <asset>
        <contributor>
            <author>VCGLab</author>
            <authoring_tool>VCGLib | MeshLab</authoring_tool>
        </contributor>
        <up_axis>Y_UP</up_axis>
        <created>Wed Sep 4 04:27:37 2013</created>
        <modified>Wed Sep 4 04:27:37 2013</modified>
    </asset>
    <library_images/>
    <library_materials/>
    <library_effects/>
    <library_geometries>
        <geometry id="shape0-lib" name="shape0">
            <mesh>
                <source id="shape0-lib-positions" name="position">
                    <float_array id="shape0-lib-positions-array" count="1899">0.185603 0.0400499 0.58055 0.186403 0.0510499 0.58825 0.183903 0.0510499 0.58825 0.186403 0.0510499 0.58325 0.183903 0.0510499 0.57835 0.185603 0.0510499 0.58055 0.185603 0.0510499 0.57935 0.186403 0.0510499 0.57935 0.186403 0.0510499 0.57835 0.200403 0.0420499 0.58325 0.186403 0.0420499 0.58325 0.186403 0.0462833 0.60775 0.183903 0.0455499 0.61075 0.203203 0.0485499 0.57195 0.203203 0.0492307 0.572194 0.203203 0.0469022 0.569888 0.203203 0.0435499 0.56325 0.203203 0.0462499 0.569038 0.203203 0.0451876 0.568898 0.203203 0.0485499 0.56425 0.203203 0.048416 0.56375 0.203203 0.0451876 0.571603 0.203203 0.0510499 0.575113 0.203203 0.0462499 0.571463 0.203203 0.0467624 0.57095 0.200603 0.0480499 0.563384 0.200603 0.0425499 0.56425 0.200603 0.048257 0.563543 0.200603 0.048416 0.56375 0.200603 0.0485499 0.56425 0.200603 0.0400499 0.57975 0.203229 0.0470191 0.569857 0.203453 0.0463978 0.571719 0.203229 0.0459436 0.568781 0.203203 0.0455499 0.56885 0.203503 0.046752 0.569048 0.203319 0.0459735 0.568669 0.203382 0.0439325 0.570684 0.203453 0.0438542 0.57025 0.203503 0.047192 0.56981 0.203503 0.0470222 0.5694 0.203382 0.0470001 0.569413 0.203203 0.0448499 0.571463 0.203203 0.0459123 0.568898 0.203266 0.0463421 0.568878 0.203229 0.0466254 0.569175 0.203319 0.0467072 0.569093 0.203266 0.0469221 0.569458 0.203382 0.0471674 0.569817 0.203203 0.0467624 0.56955 0.203319 0.0469673 0.571069 0.203382 0.046734 0.571434 0.203203 0.0465399 0.56926 0.203382 0.0472245 0.57025 0.203503 0.0440777 0.5711 0.203229 0.0447894 0.571567 0.203229 0.0451563 0.571719 0.203203 0.0455499 0.57165 0.203203 0.0443375 0.56955 0.203266 0.0455499 0.568666 0.203382 0.0455499 0.568576 0.203382 0.0463872 0.5688 0.203453 0.0459888 0.568612 0.203229 0.0451563 0.568781 0.203229 0.0447894 0.568933 0.203203 0.04456 0.56926 0.203266 0.0444296 0.571371 0.203229 0.0442327 0.571011 0.203319 0.0441326 0.571069 0.203266 0.0440195 0.57066 0.203319 0.0439133 0.57025 0.203229 0.0466254 0.571326 0.203382 0.0455499 0.571925 0.203266 0.0463421 0.571622 0.203319 0.0459735 0.571831 0.203319 0.0451263 0.571831 0.203453 0.045111 0.571888 0.203382 0.0443659 0.571434 0.203203 0.0441976 0.569888 0.203229 0.0444744 0.569175 0.203453 0.045111 0.568612 0.203319 0.0451263 0.568669 0.203203 0.0465399 0.57124 0.203319 0.0447316 0.568833 0.203319 0.0447316 0.571668 0.203229 0.0455499 0.571771 0.203203 0.0459123 0.571603 0.203229 0.0459436 0.571719 0.203203 0.0441976 0.570613 0.203319 0.0439691 0.569827 0.203319 0.0441326 0.569432 0.203319 0.0443927 0.569093 0.203453 0.0440814 0.569402 0.203229 0.0470709 0.57025 0.203203 0.0469499 0.57025 0.203229 0.0440289 0.57025 0.203229 0.0440808 0.569857 0.203229 0.0442327 0.56949 0.203453 0.0447021 0.568782 0.203203 0.0469022 0.570613 0.203266 0.0470804 0.57066 0.203229 0.0468672 0.571011 0.203453 0.0459888 0.571888 0.203503 0.0455499 0.57195 0.203203 0.04456 0.57124 0.203453 0.043912 0.569811 0.200603 0.0485499 0.57195 0.200603 0.0509695 0.574394 0.203203 0.0509695 0.574394 0.200603 0.0507321 0.573711 0.203203 0.0507321 0.573711 0.203203 0.0503495 0.573097 0.200603 0.0503495 0.573097 0.203203 0.0498406 0.572583 0.200603 0.0498406 0.572583 0.200603 0.0492307 0.572194 0.200403 0.0510499 0.58325 0.201603 0.0510499 0.58055 0.201603 0.0510499 0.57975 0.200603 0.0510499 0.57975 0.200603 0.0510499 0.575113 0.206703 0.0440777 0.5711 0.203503 0.0439079 0.57069 0.206703 0.0439079 0.57069 0.206703 0.0439079 0.56981 0.203453 0.0443509 0.569051 0.206703 0.0443479 0.569048 0.206703 0.0446999 0.568778 0.206703 0.0451099 0.568608 0.203503 0.0455499 0.56855 0.203503 0.0463999 0.568778 0.206703 0.0470222 0.5694 0.203503 0.0472499 0.57025 0.206703 0.047192 0.56981 0.203453 0.0471879 0.570689 0.206703 0.047192 0.57069 0.203453 0.0470185 0.571098 0.203503 0.046752 0.571452 0.206703 0.046752 0.571452 0.206703 0.0463999 0.571722 0.206703 0.0455499 0.57195 0.206703 0.0451099 0.571892 0.203453 0.0447021 0.571719 0.203503 0.0443479 0.571452 0.206703 0.0443479 0.571452 0.200603 0.0475499 0.56325 0.200603 0.0478088 0.563284 0.203203 0.0475499 0.56325 0.203203 0.0485159 0.563991 0.200603 0.0485159 0.563991 0.203203 0.048257 0.563543 0.203203 0.0480499 0.563384 0.203203 0.0478088 0.563284 0.206703 0.0455499 0.56855 0.206703 0.0459899 0.568608 0.206703 0.0438499 0.57025 0.206703 0.0440777 0.5694 0.206703 0.0459899 0.571892 0.206703 0.0463999 0.568778 0.206703 0.0470222 0.5711 0.206703 0.0472499 0.57025 0.206703 0.046752 0.569048 0.206703 0.0446999 0.571722 0.203203 0.0510499 0.58825 0.203203 0.0455499 0.61075 0.200403 0.0510499 0.58825 0.200403 0.0420499 0.60775 0.186403 0.0400499 0.57935 0.185603 0.0400499 0.57935 0.192653 0.0400499 0.588951 0.193015 0.0420499 0.588801 0.186403 0.0400499 0.57835 0.183903 0.0400499 0.57835 0.183903 0.0400499 0.61075 0.193015 0.0400499 0.603199 0.194464 0.0400499 0.60069 0.194153 0.0400499 0.600451 0.193791 0.0400499 0.591699 0.193792 0.0400499 0.600301 0.193015 0.0400499 0.591699 0.192653 0.0400499 0.600451 0.192343 0.0400499 0.602811 0.191954 0.0400499 0.601362 0.191954 0.0400499 0.602139 0.192653 0.0400499 0.591549 0.192343 0.0400499 0.591311 0.194153 0.0400499 0.591549 0.193015 0.0420499 0.603199 0.192653 0.0400499 0.603049 0.192343 0.0420499 0.602811 0.192104 0.0400499 0.6025 0.192104 0.0420499 0.6025 0.191903 0.0400499 0.60175 0.191903 0.0420499 0.60175 0.192104 0.0400499 0.601 0.192104 0.0420499 0.601 0.192343 0.0400499 0.60069 0.192343 0.0420499 0.60069 0.193015 0.0420499 0.600301 0.193015 0.0400499 0.600301 0.193403 0.0400499 0.60025 0.193792 0.0420499 0.600301 0.194153 0.0420499 0.600451 0.194702 0.0400499 0.601 0.194702 0.0420499 0.601 0.194852 0.0420499 0.601362 0.194852 0.0400499 0.601362 0.194903 0.0400499 0.60175 0.194852 0.0400499 0.602139 0.194702 0.0400499 0.6025 0.194852 0.0420499 0.602139 0.193792 0.0400499 0.603199 0.193403 0.0420499 0.60325 0.192653 0.0420499 0.591549 0.192104 0.0400499 0.591 0.192343 0.0420499 0.591311 0.192104 0.0420499 0.591 0.191954 0.0400499 0.590639 0.191903 0.0400499 0.59025 0.191903 0.0420499 0.59025 0.191954 0.0400499 0.589862 0.192104 0.0400499 0.5895 0.192343 0.0400499 0.58919 0.192343 0.0420499 0.58919 0.193015 0.0400499 0.588801 0.193403 0.0400499 0.58875 0.193791 0.0400499 0.588801 0.194153 0.0420499 0.588951 0.194464 0.0400499 0.58919 0.194903 0.0420499 0.59025 0.194852 0.0400499 0.590639 0.194702 0.0420499 0.591 0.194702 0.0400499 0.591 0.194153 0.0420499 0.591549 0.193791 0.0420499 0.591699 0.193403 0.0400499 0.59175 0.194464 0.0420499 0.591311 0.192104 0.0420499 0.5895 0.191954 0.0420499 0.590639 0.193403 0.0420499 0.59175 0.192653 0.0420499 0.600451 0.192653 0.0420499 0.588951 0.191954 0.0420499 0.589862 0.194852 0.0420499 0.590639 0.192653 0.0420499 0.603049 0.186403 0.0420499 0.60775 0.193403 0.0420499 0.60025 0.193015 0.0420499 0.591699 0.191954 0.0420499 0.601362 0.191954 0.0420499 0.602139 0.203403 0.0400499 0.58775 0.183903 0.0365499 0.61075 0.183903 0.0365499 0.58775 0.203403 0.0365499 0.61075 0.183903 0.0400499 0.58775 0.201603 0.0400499 0.57975 0.194702 0.0400499 0.5895 0.194153 0.0400499 0.588951 0.194903 0.0400499 0.59025 0.194852 0.0400499 0.589862 0.203203 0.0441499 0.57025 0.203203 0.0443375 0.57095 0.203203 0.0418692 0.572194 0.203203 0.0432911 0.563284 0.203203 0.0428428 0.563543 0.203203 0.0448499 0.569038 0.203203 0.0401304 0.574394 0.200603 0.0401304 0.574394 0.200603 0.0403678 0.573711 0.203203 0.0403678 0.573711 0.203203 0.0407504 0.573097 0.203203 0.0412593 0.572583 0.200603 0.0418692 0.572194 0.200603 0.0407504 0.573097 0.200603 0.0412593 0.572583 0.200603 0.0435499 0.56325 0.200603 0.0432911 0.563284 0.200603 0.042584 0.563991 0.200603 0.0430499 0.563384 0.200603 0.0425499 0.57195 0.200603 0.0400499 0.575113 0.201603 0.0400499 0.58055 0.193791 0.0420499 0.588801 0.193403 0.0420499 0.58875 0.203203 0.0425499 0.56425 0.203203 0.0425499 0.57195 0.203203 0.0430499 0.563384 0.200603 0.0428428 0.563543 0.203203 0.0426839 0.56375 0.200603 0.0426839 0.56375 0.203203 0.042584 0.563991 0.194464 0.0400499 0.602811 0.203203 0.0400499 0.61075 0.193403 0.0400499 0.60325 0.194464 0.0400499 0.591311 0.194153 0.0400499 0.603049 0.203203 0.0400499 0.575113 0.194464 0.0420499 0.602811 0.194153 0.0420499 0.603049 0.193792 0.0420499 0.603199 0.194903 0.0420499 0.60175 0.194702 0.0420499 0.6025 0.194464 0.0420499 0.60069 0.194852 0.0420499 0.589862 0.194464 0.0420499 0.58919 0.194702 0.0420499 0.5895 0.200403 0.0462833 0.60775 0.203403 0.0400499 0.61075 0.203403 0.0365499 0.58775 0.194876 0.0495833 0.586531 0.194398 0.0495833 0.586376 0.193905 0.0495833 0.586282 0.192902 0.0495833 0.586282 0.192902 0.0437833 0.586282 0.192408 0.0495833 0.586376 0.192408 0.0437833 0.586376 0.191931 0.0495833 0.586531 0.191931 0.0437833 0.586531 0.191476 0.0495833 0.586745 0.191476 0.0437833 0.586745 0.191052 0.0437833 0.587014 0.191052 0.0495833 0.587014 0.189599 0.0495833 0.589014 0.189474 0.0495833 0.589501 0.190665 0.0437833 0.587334 0.190321 0.0495833 0.587701 0.189599 0.0437833 0.589014 0.189599 0.0437833 0.591486 0.189599 0.0495833 0.591486 0.190321 0.0495833 0.5928 0.191052 0.0495833 0.593486 0.191931 0.0437833 0.593969 0.191972 0.0495833 0.590699 0.192092 0.0495833 0.589522 0.194876 0.0495833 0.593969 0.19533 0.0495833 0.593756 0.195754 0.0495833 0.593486 0.195754 0.0495833 0.587014 0.193924 0.0495833 0.588844 0.190026 0.0495833 0.592394 0.192485 0.0495833 0.589064 0.190665 0.0495833 0.587334 0.189784 0.0495833 0.591953 0.190665 0.0495833 0.593166 0.191476 0.0495833 0.593756 0.191931 0.0495833 0.593969 0.191972 0.0495833 0.589801 0.191911 0.0495833 0.590099 0.189411 0.0495833 0.589999 0.191911 0.0495833 0.590402 0.189411 0.0495833 0.590501 0.189474 0.0495833 0.591 0.19533 0.0495833 0.586745 0.19363 0.0495833 0.588768 0.193403 0.0495833 0.58625 0.193327 0.0495833 0.588752 0.192408 0.0495833 0.594125 0.192902 0.0495833 0.594219 0.193327 0.0495833 0.591748 0.194398 0.0495833 0.594125 0.19363 0.0437833 0.591733 0.193924 0.0437833 0.591657 0.193924 0.0495833 0.591657 0.194197 0.0495833 0.591523 0.194437 0.0495833 0.589163 0.194197 0.0495833 0.588977 0.19363 0.0437833 0.588768 0.193027 0.0495833 0.588798 0.192485 0.0437833 0.589064 0.192092 0.0495833 0.590978 0.192743 0.0495833 0.591597 0.193027 0.0495833 0.591702 0.190026 0.0495833 0.588107 0.189784 0.0495833 0.588547 0.190321 0.0437833 0.5928 0.191476 0.0437833 0.593756 0.193403 0.0437833 0.59425 0.193403 0.0495833 0.59425 0.193905 0.0495833 0.594219 0.193905 0.0437833 0.594219 0.194876 0.0437833 0.593969 0.193027 0.0437833 0.591702 0.19363 0.0495833 0.591733 0.194634 0.0495833 0.591107 0.194634 0.0437833 0.591107 0.194634 0.0495833 0.589393 0.194197 0.0437833 0.588977 0.193027 0.0437833 0.588798 0.192743 0.0495833 0.588904 0.192265 0.0495833 0.589273 0.191911 0.0437833 0.590402 0.192092 0.0437833 0.590978 0.192265 0.0495833 0.591227 0.192265 0.0437833 0.591227 0.192485 0.0495833 0.591437 0.19533 0.0437833 0.586745 0.197207 0.0495833 0.589014 0.197207 0.0437833 0.589014 0.197023 0.0495833 0.588547 0.196485 0.0495833 0.587701 0.195754 0.0437833 0.593486 0.196141 0.0437833 0.593166 0.196141 0.0495833 0.593166 0.196485 0.0495833 0.5928 0.197023 0.0437833 0.591953 0.196781 0.0495833 0.592394 0.197023 0.0495833 0.591953 0.197207 0.0437833 0.591486 0.197207 0.0495833 0.591486 0.197332 0.0437833 0.591 0.197395 0.0495833 0.589999 0.197332 0.0437833 0.589501 0.197332 0.0495833 0.589501 0.194873 0.0495833 0.589948 0.194782 0.0495833 0.589659 0.196781 0.0495833 0.588107 0.196141 0.0495833 0.587334 0.194437 0.0495833 0.591338 0.194782 0.0495833 0.590842 0.197332 0.0495833 0.591 0.194873 0.0495833 0.590552 0.197395 0.0495833 0.590501 0.194903 0.0495833 0.59025 0.192408 0.0437833 0.594125 0.192743 0.0437833 0.591597 0.191052 0.0437833 0.593486 0.192485 0.0437833 0.591437 0.190665 0.0437833 0.593166 0.192902 0.0437833 0.594219 0.195754 0.0437833 0.587014 0.192743 0.0437833 0.588904 0.189474 0.0437833 0.591 0.189411 0.0437833 0.590501 0.191911 0.0437833 0.590099 0.19533 0.0437833 0.593756 0.194197 0.0437833 0.591523 0.189411 0.0437833 0.589999 0.189474 0.0437833 0.589501 0.196485 0.0437833 0.587701 0.191972 0.0437833 0.589801 0.189784 0.0437833 0.588547 0.192092 0.0437833 0.589522 0.190026 0.0437833 0.588107 0.192265 0.0437833 0.589273 0.190321 0.0437833 0.587701 0.194398 0.0437833 0.594125 0.193327 0.0437833 0.591748 0.196485 0.0437833 0.5928 0.193327 0.0437833 0.588752 0.193403 0.0437833 0.58625 0.190026 0.0437833 0.592394 0.189784 0.0437833 0.591953 0.191972 0.0437833 0.590699 0.193905 0.0437833 0.586282 0.194398 0.0437833 0.586376 0.194876 0.0437833 0.586531 0.193924 0.0437833 0.588844 0.194873 0.0437833 0.589948 0.194903 0.0437833 0.59025 0.197395 0.0437833 0.589999 0.197395 0.0437833 0.590501 0.194437 0.0437833 0.589163 0.196141 0.0437833 0.587334 0.194634 0.0437833 0.589393 0.194782 0.0437833 0.589659 0.196781 0.0437833 0.588107 0.197023 0.0437833 0.588547 0.194873 0.0437833 0.590552 0.194782 0.0437833 0.590842 0.196781 0.0437833 0.592394 0.194437 0.0437833 0.591338 0.189599 0.0495833 0.600514 0.193905 0.0495833 0.597782 0.192409 0.0437833 0.597876 0.192409 0.0495833 0.597876 0.19533 0.0495833 0.598245 0.194398 0.0437833 0.597876 0.190665 0.0495833 0.598834 0.189599 0.0437833 0.600514 0.189599 0.0495833 0.602986 0.189784 0.0495833 0.603453 0.190026 0.0495833 0.603894 0.191052 0.0437833 0.604986 0.191052 0.0495833 0.604986 0.191931 0.0495833 0.605469 0.192409 0.0495833 0.605625 0.192902 0.0495833 0.605719 0.194876 0.0495833 0.605469 0.19533 0.0437833 0.605255 0.190026 0.0495833 0.599607 0.192265 0.0495833 0.600773 0.189784 0.0495833 0.600047 0.192743 0.0495833 0.603097 0.192485 0.0495833 0.602937 0.192265 0.0495833 0.602727 0.192743 0.0495833 0.600404 0.191476 0.0495833 0.598245 0.19533 0.0495833 0.605256 0.193924 0.0495833 0.600344 0.191476 0.0495833 0.605256 0.194437 0.0495833 0.602838 0.195754 0.0495833 0.604986 0.194197 0.0495833 0.603023 0.194437 0.0495833 0.600663 0.194197 0.0495833 0.600477 0.189474 0.0495833 0.601001 0.189411 0.0495833 0.601499 0.191911 0.0495833 0.601902 0.189411 0.0495833 0.602001 0.189474 0.0495833 0.6025 0.193403 0.0495833 0.59775 0.192902 0.0495833 0.597782 0.193027 0.0495833 0.600298 0.190321 0.0495833 0.6043 0.190665 0.0495833 0.604666 0.193403 0.0495833 0.60575 0.194398 0.0495833 0.605625 0.193327 0.0495833 0.603248 0.193924 0.0495833 0.603157 0.194873 0.0437833 0.602052 0.194903 0.0495833 0.60175 0.194197 0.0437833 0.600477 0.19363 0.0437833 0.600268 0.19363 0.0495833 0.600268 0.192485 0.0495833 0.600564 0.192092 0.0495833 0.601022 0.191972 0.0495833 0.601301 0.191972 0.0495833 0.602199 0.192092 0.0437833 0.602478 0.189411 0.0437833 0.601499 0.189411 0.0437833 0.602001 0.189474 0.0437833 0.6025 0.194398 0.0495833 0.597876 0.19533 0.0437833 0.598245 0.194876 0.0495833 0.598031 0.191931 0.0495833 0.598031 0.191476 0.0437833 0.598245 0.191052 0.0495833 0.598514 0.190665 0.0437833 0.598834 0.190321 0.0437833 0.599201 0.190321 0.0495833 0.599201 0.189784 0.0437833 0.603453 0.190026 0.0437833 0.603894 0.190665 0.0437833 0.604666 0.191476 0.0437833 0.605256 0.191931 0.0437833 0.605469 0.193403 0.0437833 0.60575 0.193905 0.0495833 0.605719 0.194398 0.0437833 0.605625 0.194876 0.0437833 0.605469 0.193027 0.0437833 0.603202 0.19363 0.0495833 0.603233 0.193924 0.0437833 0.603157 0.194197 0.0437833 0.603023 0.194782 0.0437833 0.602342 0.194873 0.0495833 0.601448 0.194782 0.0437833 0.601159 0.193327 0.0495833 0.600252 0.193027 0.0437833 0.600298 0.192485 0.0437833 0.600564 0.192092 0.0437833 0.601022 0.191972 0.0437833 0.601301 0.191911 0.0495833 0.601599 0.192092 0.0495833 0.602478 0.192265 0.0437833 0.602727 0.193027 0.0495833 0.603202 0.197023 0.0437833 0.600047 0.196485 0.0437833 0.599201 0.196485 0.0495833 0.599201 0.196141 0.0437833 0.598834 0.196141 0.0495833 0.598834 0.195754 0.0437833 0.598514 0.195754 0.0495833 0.598514 0.196485 0.0437833 0.6043 0.196142 0.0495833 0.604666 0.196485 0.0495833 0.6043 0.196781 0.0437833 0.603894 0.196781 0.0495833 0.603894 0.197208 0.0437833 0.602986 0.197208 0.0495833 0.602986 0.197395 0.0437833 0.602001 0.197395 0.0495833 0.602001 0.197332 0.0495833 0.601001 0.197208 0.0495833 0.600514 0.194782 0.0495833 0.601159 0.194634 0.0495833 0.600893 0.197023 0.0495833 0.600047 0.196781 0.0495833 0.599607 0.194634 0.0495833 0.602607 0.194782 0.0495833 0.602342 0.197023 0.0495833 0.603453 0.197332 0.0495833 0.6025 0.194873 0.0495833 0.602052 0.197395 0.0495833 0.601499 0.192409 0.0437833 0.605625 0.192743 0.0437833 0.603097 0.192485 0.0437833 0.602937 0.195754 0.0437833 0.604986 0.192265 0.0437833 0.600773 0.190321 0.0437833 0.6043 0.194876 0.0437833 0.598031 0.193924 0.0437833 0.600344 0.191972 0.0437833 0.602199 0.190026 0.0437833 0.599607 0.191052 0.0437833 0.598514 0.192743 0.0437833 0.600404 0.191931 0.0437833 0.598031 0.19363 0.0437833 0.603233 0.193905 0.0437833 0.605719 0.193327 0.0437833 0.603248 0.192902 0.0437833 0.605719 0.189599 0.0437833 0.602986 0.191911 0.0437833 0.601902 0.194437 0.0437833 0.602838 0.191911 0.0437833 0.601599 0.189474 0.0437833 0.601001 0.189784 0.0437833 0.600047 0.192902 0.0437833 0.597782 0.193327 0.0437833 0.600252 0.193403 0.0437833 0.59775 0.193905 0.0437833 0.597782 0.196781 0.0437833 0.599607 0.194634 0.0437833 0.600893 0.194873 0.0437833 0.601448 0.197208 0.0437833 0.600514 0.194634 0.0437833 0.602607 0.197023 0.0437833 0.603453 0.197332 0.0437833 0.601001 0.194437 0.0437833 0.600663 0.196142 0.0437833 0.604666 0.197395 0.0437833 0.601499 0.194903 0.0437833 0.60175 0.197332 0.0437833 0.6025</float_array>
                    <technique_common>
                        <accessor count="633" source="#shape0-lib-positions-array" stride="3">
                            <param name="X" type="float"/>
                            <param name="Y" type="float"/>
                            <param name="Z" type="float"/>
                        </accessor>
                    </technique_common>
                </source>
                <source id="shape0-lib-normals" name="normal">
                    <float_array id="shape0-lib-normals-array" count="3804">-7.45058e-06 0 -1 -2.38419e-05 0 -1 -1 0 7.52586e-06 1.49011e-06 1 -8.88175e-12 8.97153e-12 1 3.76293e-07 2.3284e-07 1 1.31076e-06 -2.89595e-06 1 2.23785e-06 0 1 0 0 1 0 4.6569e-06 1 3.72527e-06 1 0 0 1 0 -1.49014e-05 4.25747e-06 0 1 1 0 -5.96047e-06 7.45059e-05 0 1 5.66132e-06 0.971399 0.237453 1.78203e-06 0.971399 0.237453 1 4.05468e-07 -6.69031e-06 -1 0 7.28502e-06 1 -3.51996e-06 -8.50205e-06 2.28039e-06 0.971399 0.237454 -8.51495e-06 2.99723e-11 -1 1 2.00403e-05 -3.58237e-05 1 -8.17019e-06 -1.0758e-06 1 -1.08275e-05 1.42523e-06 1 4.38939e-06 -2.12228e-05 1 5.00789e-05 -7.85819e-05 1 -1.87798e-05 7.77858e-06 1 0 0 1 1.17948e-10 -7.91537e-06 1 2.92657e-06 -7.06678e-06 1 1.1023e-06 -8.37639e-06 1 -1.00335e-06 -7.62438e-06 1 -1.00262e-06 -7.62459e-06 1 -2.89306e-06 -6.98594e-06 1 2.05708e-06 -7.74084e-06 1 7.63531e-06 -5.85942e-06 1 5.23534e-06 -6.8223e-06 1 5.46516e-06 -1.52388e-05 1 -2.67989e-05 1.67078e-05 1 0 -6.80538e-06 1 0 0 1 0 0 1 0 0 1 1.24773e-05 -3.34317e-06 1 0 0 1 -1.99345e-06 -4.06607e-06 1 0 0 1 5.99695e-06 -5.99781e-06 1 2.89354e-06 -6.98588e-06 1 9.86575e-07 -7.50255e-06 1 -5.23539e-06 -6.82228e-06 1 -7.63626e-06 -5.85904e-06 1 0 0 1 0 0 1 0 -6.0983e-06 1 -9.48972e-06 3.29837e-06 1 3.07294e-07 -1.29713e-05 1 -1.33412e-06 -4.63655e-07 1 0 0 1 0 0 1 0 0 -1 0 0 -1 5.76011e-06 2.00882e-05 -1 0 6.42607e-06 -1 0 0 -1 0 0 -1 0 0 -1 0 0 -1 0 0 -1 0 7.74084e-06 -1 -7.68989e-11 7.7409e-06 -1 0 0 -1 0 0 -1 -3.14443e-05 8.76786e-05 -1 5.08282e-06 1.31806e-05 -1 -2.89214e-06 2.28648e-06 -1 -3.49762e-06 1.21557e-06 -0.978182 0.191938 -0.0795007 -0.978178 0.205991 -0.0271131 -0.204616 0.606951 0.767947 -0.204345 0.970525 -0.127766 -0.204269 0.904384 -0.374652 -0.97497 0.135572 -0.176223 -0.97818 0.0271065 -0.205982 -0.204462 0.7766 -0.595892 -0.323739 0.729022 -0.603092 -0.323748 0.603097 -0.729014 -0.612555 0.464191 -0.639768 -0.612548 0.321991 -0.721878 -0.787446 0.215452 -0.577502 -0.787446 0.102138 -0.607863 -0.97497 0.0293078 -0.220397 -0.978181 -0.0794898 -0.191946 -0.978159 -0.0270865 0.206088 -0.978161 -0.0795336 0.19203 -0.204754 -0.968527 0.141534 -0.204436 0.90437 -0.374594 -0.945732 0.00409782 -0.324923 -0.944876 -0.0427205 -0.324629 -0.978176 -0.0795278 0.191954 -0.974966 -0.176568 0.135149 -0.944858 0.1253 -0.302561 -0.945716 0.166038 -0.279379 -0.787338 0.392483 -0.475452 -0.787355 0.475448 -0.392456 -0.61258 0.639767 -0.464159 -0.611366 0.731098 -0.302866 -0.204383 0.970519 -0.127754 -0.204729 0.972163 0.113957 -0.944848 0.259819 -0.199388 -0.945709 0.283498 -0.158943 -0.704055 0.704072 -0.092672 -0.706247 0.706264 0.0490424 -0.511577 0.845526 0.152886 -0.511595 0.809006 0.289448 -0.400289 0.846639 0.350671 -0.401133 0.739153 0.54106 -0.204632 0.768033 0.606837 -0.978186 0.126464 -0.164799 -0.97497 0.205525 -0.0848154 -0.70622 0.669528 -0.230186 -0.704044 0.704083 -0.092682 -0.204446 -0.904349 0.37464 -0.323628 -0.860295 0.3939 -0.323602 -0.771269 0.54811 -0.612553 -0.613939 0.497853 -0.61255 -0.497815 0.613972 -0.787377 -0.357609 0.502149 -0.786158 -0.236488 0.57099 -0.978197 -0.0271224 0.205898 -0.978198 0.0270955 0.205898 -0.978172 -0.164863 -0.126494 -0.978171 -0.126517 -0.164851 -0.786236 -0.236448 -0.570899 -0.787446 -0.102138 -0.607863 -0.612655 -0.082066 -0.786078 -0.612655 0.082066 -0.786078 -0.401259 0.14004 -0.905196 -0.401262 0.331335 -0.853936 -0.205057 0.387351 -0.898839 -0.204665 0.595912 -0.776531 -0.978176 -0.0795054 -0.191964 -0.978176 -0.126494 -0.164835 -0.944878 -0.199332 0.259754 -0.945732 -0.232681 0.226826 -0.787526 -0.501992 0.3575 -0.787501 -0.560627 0.256006 -0.612598 -0.738082 0.282771 -0.612612 -0.780574 0.124136 -0.401327 -0.910571 0.0989788 -0.400413 -0.908497 -0.119594 -0.978169 0.191983 0.0795481 -0.978164 0.164887 0.126522 -0.204958 -0.11396 0.972114 -0.94486 0.199366 0.259795 -0.945716 0.15891 0.283495 -0.787398 0.215463 0.577564 -0.786188 0.0807085 0.612695 -0.706104 0.0504446 0.706309 -0.706104 -0.0504446 0.706309 -0.401296 -0.140032 0.905181 -0.400388 -0.350662 0.846597 -0.400418 -0.350647 0.846589 -0.401337 -0.541003 0.739083 -0.204993 -0.606775 0.767986 -0.978176 -0.206002 -0.0271206 -0.978174 -0.191974 -0.0795111 -0.786245 -0.490191 -0.376207 -0.786249 -0.376182 -0.490204 -0.400666 -0.350615 -0.846484 -0.401594 -0.13996 -0.90506 -0.204961 -0.113837 -0.972128 -0.978172 0.164848 0.126508 -0.97496 0.0848764 0.205547 -0.204958 0.113967 -0.972113 -0.786205 -0.23648 -0.570929 -0.786204 -0.376237 -0.490234 -0.978189 -0.164782 -0.126465 -0.978185 -0.19192 -0.079507 -0.204589 -0.776619 0.595824 -0.786185 -0.236489 0.570952 -0.786188 -0.0807085 0.612695 -0.978181 0.0271325 0.205975 -0.978181 0.0794915 0.191948 -0.944846 -0.302564 0.125385 -0.945703 -0.314996 0.0801398 -0.787391 -0.613658 0.0586524 -0.786178 -0.612713 -0.0806713 -0.786183 -0.612707 -0.0806678 -0.78618 -0.570973 -0.236457 -0.400419 -0.846595 -0.350629 -0.400417 -0.726939 -0.557877 -0.400541 -0.726923 -0.557808 -0.40057 -0.557765 -0.726939 -0.978177 0.205995 -0.0271153 -0.974963 0.205319 0.0853874 -0.978177 -0.205995 0.0271153 -0.978177 -0.205995 -0.0271219 -0.786222 -0.570914 -0.236458 -0.78622 -0.490225 -0.376215 -0.400384 -0.557869 -0.726962 -0.400386 -0.350757 -0.846558 -0.944846 0.324712 0.042756 -0.945704 0.312858 0.0881171 -0.7875 0.560645 0.255973 -0.786318 0.490152 0.376106 -0.706268 0.534942 0.463706 -0.706326 0.464712 0.533991 -0.511762 0.489767 0.705853 -0.511814 0.367254 0.776641 -0.400394 0.350545 0.846642 -0.401296 0.140032 0.905181 -0.204958 0.11396 0.972114 -0.978177 -0.164844 0.126477 -0.974967 -0.220483 0.0287574 -0.400457 -0.908476 -0.119608 -0.40048 -0.846562 -0.35064 -2.29249e-05 -1.49012e-05 -1 2.29249e-05 1.49012e-05 -1 1.10912e-11 1 4.83806e-07 0 1 4.83802e-07 0 0.993792 -0.111255 -2.55071e-06 0.993791 -0.111264 -7.5264e-06 0.944571 -0.328307 0 0.94458 -0.328282 0 0.848588 -0.529054 1.21276e-05 0.848611 -0.529017 1.613e-05 0.710593 -0.703603 0 0.710552 -0.703644 0 0.537427 -0.84331 7.70032e-07 0.53743 -0.843309 4.83687e-07 0.337581 -0.941297 0 0.337579 -0.941297 0 1 0 0 1 0 0 1 0 0 1 0 0 1 0 0 1 0 0 1 0 0 0 1 -1 0 0 4.25747e-06 0 1 -1 0 5.96047e-06 0 -0.79336 0.608753 0 -0.923863 0.382724 7.12791e-06 -0.923882 0.382676 2.25561e-06 -0.992641 0.121097 -0.0012943 -0.991444 0.130528 -0.0012943 -0.991444 -0.130528 -0.00129432 -0.991444 -0.130528 -0.00129708 -0.923886 -0.382666 -0.00129672 -0.923885 -0.382669 -0.00129846 -0.793342 -0.608774 -0.00129019 -0.793305 -0.608823 -0.00128911 -0.608737 -0.793371 -0.00129903 -0.608795 -0.793327 -0.00130002 -0.382778 -0.92384 -0.00128149 -0.382652 -0.923892 -0.00128202 -0.139706 -0.990192 0 -0.130547 -0.991442 0 0.139982 -0.990154 -0.00129866 0.130547 -0.991441 -0.00129998 0.373975 -0.927438 0 0.382652 -0.923892 0 0.608799 -0.793324 -1.4778e-05 0.608715 -0.793389 -1.1339e-05 0.793356 -0.608758 -1.1339e-05 0.793356 -0.608758 -7.12791e-06 0.923882 -0.382676 -7.12791e-06 0.923882 -0.382676 -2.43113e-06 0.991446 -0.13052 -2.43113e-06 0.991446 -0.13052 2.60665e-06 0.99016 0.139943 -0.00129671 0.991447 0.130503 -0.0013041 0.923886 0.382666 -0.00129567 0.923862 0.382723 -0.00129903 0.799022 0.6013 0 0.793356 0.608758 0 0.601301 0.799023 -0.00126995 0.608714 0.793389 -0.00126609 0.382548 0.923935 -0.00128149 0.382652 0.923892 -0.00128204 0.139838 0.990174 0 0.130679 0.991425 0 -0.139982 0.990154 -0.00129866 -0.130547 0.991441 -0.00129843 -0.382663 0.923887 -0.00128352 -0.382764 0.923845 -0.00128667 -0.601245 0.799064 1.40694e-05 -0.608715 0.793389 1.04142e-05 -0.793406 0.608693 2.27278e-05 0.130825 -0.991405 -2.27292e-05 0.130376 -0.991465 -2.99257e-06 0.991443 -0.130538 0 0.991447 -0.130508 0 0.9239 -0.382633 -8.77366e-06 0.923867 -0.382714 -1.39574e-05 0.793299 -0.608832 0 0.793384 -0.608722 0 0.60873 -0.793378 0 0.60873 -0.793378 0 0.382671 -0.923885 -2.11818e-05 0.382476 -0.923965 1 6.19707e-06 -8.07716e-06 1 1.14233e-05 -8.76519e-06 1 -3.27126e-05 -8.76509e-06 1 -0.000128623 1.69339e-05 1 -4.96521e-05 0.000119882 1 0 0 1 0 0 1 0 0 1 -2.09602e-06 -5.06073e-06 1 0 0 1 -2.98981e-06 -5.1784e-06 1 -6.1973e-06 -4.75612e-06 1 -5.06049e-06 -5.06073e-06 1 2.07387e-05 -1.19736e-05 1 -0.000119806 -4.96315e-05 1 0 0 1 0 0 1 0 0 1 -6.41816e-07 -4.86928e-06 1 1.17457e-06 -4.38258e-06 1 -1.40078e-05 -1.31482e-05 1 3.3823e-05 -3.31827e-07 1 0 -7.285e-06 1.65415e-06 0.9714 0.23745 -2.03472e-06 0.971399 0.237454 5.05474e-06 0.971399 0.237453 -1 1.07593e-10 7.64166e-06 -1 -7.43363e-07 7.29852e-06 0 -1 0 0 -1 0 6.84172e-08 -1 -5.19388e-07 -2.32832e-07 -1 -2.20431e-07 -2.78663e-07 -1 -2.13822e-07 -3.64945e-07 -1 -1.51149e-07 -4.91647e-07 -1 -6.47301e-08 -5.31824e-08 -1 -4.03719e-07 -1.36297e-07 -1 -3.29058e-07 -2.0697e-07 -1 -2.69749e-07 -2.38419e-05 0 -1 0 1 0 0 1 0 1 0 0 1 0 -1.49014e-05 0 -5.4186e-06 1 0 -1 0 6.76291e-08 -1 -1.14979e-07 2.19164e-06 -1 0 -3.69377e-07 -1 -1.44144e-07 0 -1 0 0 -1 0 -1.93022e-07 -1 -2.44491e-07 0 -1 0 0 -1 0 0 -1 0 0 -1 0 0 -1 0 0 -1 0 0 -1 0 0 -1 0 0 -1 0 0 -1 0 0 -1 0 0 -1 0 0 -1 0 0 -1 0 0 -1 0 0 -1 0 0 -1 0 0 -1 0 0 -1 0 0 -1 0 0 -1 0 0 -1 0 0 -1 0 0.382804 0 -0.923829 0.608714 0 -0.79339 0.608714 0 -0.79339 0.793301 0 -0.608829 0.793358 -1.81423e-05 -0.608756 0.923894 -1.14038e-05 -0.382648 0.923872 0 -0.382701 0.991442 0 -0.130551 0.991442 0 -0.130551 0.991444 0 0.130533 0.991444 0 0.130533 0.923872 0 0.382701 0.923894 1.14038e-05 0.382648 0.793414 1.81401e-05 0.608682 0.793301 -1.81445e-05 0.608829 0.608828 -2.36423e-05 0.793302 0.608828 -2.36423e-05 0.793302 0.382545 -2.75355e-05 0.923937 0.382674 0 0.923883 0.130598 0 0.991435 0.130598 0 0.991435 -0.130598 0 0.991435 -0.130598 0 0.991435 -0.382674 0 0.923883 -0.382674 0 0.923883 -0.608636 0 0.79345 -0.608732 -2.36444e-05 0.793376 -0.793414 -1.81401e-05 0.608682 -0.793358 0 0.608756 -0.923881 0 0.38268 -0.923881 0 0.38268 -0.991441 0 0.130553 -0.991444 -3.89019e-06 0.130533 -0.991446 3.88961e-06 -0.130514 -0.991444 0 -0.130533 -0.923894 0 -0.382648 -0.923894 0 -0.382648 -0.793358 0 -0.608756 -0.793301 -1.81445e-05 -0.608829 -0.608732 -2.36444e-05 -0.793376 -0.608828 0 -0.793302 -0.382804 0 -0.923829 -0.382674 -2.75339e-05 -0.923883 -0.130449 -2.95477e-05 -0.991455 -0.130598 0 -0.991435 0.130454 0 -0.991454 0.130454 0 -0.991454 0.382804 0 -0.923829 0.382545 2.75355e-05 -0.923937 0.608732 2.36444e-05 -0.793376 0.608828 0 -0.793302 0.793358 0 -0.608756 0.793358 0 -0.608756 0.923859 0 -0.382734 0.923859 0 -0.382734 0.991446 0 -0.130514 0.991446 0 -0.130514 0.991444 0 0.130533 0.991446 3.88961e-06 0.130514 0.923894 1.14038e-05 0.382648 0.923872 0 0.382701 0.793358 0 0.608756 0.793358 0 0.608756 0.608732 0 0.793376 0.608732 0 0.793376 0.382674 0 0.923883 0.382674 0 0.923883 0.130603 0 0.991435 0.130603 0 0.991435 -0.130598 0 0.991435 -0.130598 0 0.991435 -0.382674 0 0.923883 -0.382545 2.75355e-05 0.923937 -0.608732 2.36444e-05 0.793376 -0.608828 0 0.793302 -0.793339 0 0.60878 -0.793339 0 0.60878 -0.923894 0 0.382648 -0.923894 0 0.382648 -0.991444 0 0.130533 -0.991444 0 0.130533 -0.991449 0 -0.130496 -0.991449 0 -0.130496 -0.923881 0 -0.38268 -0.923881 0 -0.38268 -0.793358 0 -0.608756 -0.793358 0 -0.608756 -0.608732 0 -0.793376 -0.608732 0 -0.793376 -0.382674 0 -0.923883 -0.382674 0 -0.923883 -0.130454 0 -0.991454 -0.130603 2.95471e-05 -0.991435 0.130449 2.95477e-05 -0.991455 0.130598 0 -0.991435 0.382674 0 -0.923883 -1 1.50525e-07 7.35861e-06 6.17665e-06 0 1 0 1 0 0 1 0 0 1 0 0 1 0 2.6609e-07 1 -3.86573e-07 0 1 0 0 1 0 0 1 0 0 1 0 0 1 0 0 1 0 0 1 0 0 1 0 0 1 0 0 1 0 0 1 0 0 1 0 0 1 0 0 1 0 0 1 0 -1.37151e-07 1 -1.04118e-06 9.04186e-08 1 -6.87187e-07 2.11724e-07 1 -5.10957e-07 6.23702e-06 1 7.49965e-06 0 1 0 0 1 0 0 1 0 0 1 0 0 1 0 0 1 0 0 1 0 0 1 0 0 1 0 -1.9104e-07 -1 1.36147e-12 -9.16994e-06 1.70299e-05 -1 -1 1.21366e-10 7.12666e-06 -1 -1.21366e-10 7.12662e-06 9.16995e-06 1.70299e-05 1 1.9104e-07 1 -1.36148e-12 0 -1 0 0 -1 0 0 -1 0 0 -1 0 0 -1 0 0 -1 0 0 -1 0 0 -1 0 1 1.08279e-05 1.42551e-06 1 -6.45376e-07 -7.74084e-06 1 8.17049e-06 -1.07548e-06 1 -2.0047e-05 -3.58335e-05 1 0 0 1 -1.12229e-05 -4.64935e-06 1 0 0 1 -3.87967e-06 -6.71863e-06 1 -1.52557e-05 -2.00841e-06 1 -1.02628e-05 -4.25033e-06 1 -7.18223e-06 -5.51227e-06 1 7.90862e-05 4.93069e-05 1 0 -2.07331e-05 0 -0.993791 -0.111264 0 -0.993791 -0.111264 0 -0.94458 -0.328282 -1.3534e-06 -0.944581 -0.328277 -1.21586e-06 -0.848588 -0.529054 0 -0.848586 -0.529058 0 -0.710593 -0.703603 -1.61291e-05 -0.710634 -0.703562 -1.93336e-05 -0.537369 -0.843347 -1.93336e-05 -0.537369 -0.843347 -2.15785e-05 -0.337654 -0.94127 0 -0.337581 -0.941297 -1 -7.90693e-05 -4.92959e-05 -1 1.69679e-05 2.66295e-05 -1 -1.11546e-06 6.42607e-06 -1 3.39256e-06 9.45737e-06 -1 -1.52924e-05 -5.31477e-06 -1 0 0 -1 0 0 -1 0 0 -1 0 0 -1 0 0 -1 1.66645e-05 2.25989e-05 -1 0 9.42436e-06 -7.45058e-06 0 -1 0 1 0 0 -1 0 0 -1 0 0 0 1 -1 0 0 -2.27292e-05 -0.130376 -0.991465 -2.27292e-05 -0.130376 -0.991465 -2.1178e-05 -0.382871 -0.923802 0 -0.382676 -0.923883 0 -0.60873 -0.793378 0 -0.60873 -0.793378 0 -0.793292 -0.608841 -1.39551e-05 -0.793377 -0.608731 -1.32373e-06 -0.923872 -0.382701 -8.77181e-06 -0.9239 -0.382633 0 -0.991443 -0.130538 -1.42055e-06 -0.991445 -0.130524 -2.51177e-07 -1 -1.92732e-07 -3.1258e-07 -1 -1.29461e-07 -3.92763e-07 -1 -5.17032e-08 -1.09326e-07 -1 -1.42487e-07 -3.5526e-07 -1 -1.0453e-07 -5.5766e-08 -1 -4.23841e-07 -1.57481e-07 -1 -1.20837e-07 -2.23316e-07 -1 -9.24994e-08 -1.70807e-07 -1 -1.14303e-07 0 -1 0 -1.95176e-07 -1 -2.54377e-07 -1.34804e-07 -1 -3.25325e-07 -4.84909e-07 -1 3.45403e-08 -5.23587e-07 -1 6.89459e-08 1 3.6166e-07 -7.10819e-06 6.17665e-06 0 1 0 1 0 4.96108e-07 1 1.52049e-07 0 1 0 3.8286e-07 1 2.93831e-07 -5.93537e-06 1 7.89122e-06 0 1 0 7.90917e-07 1 -1.04132e-07 -8.56147e-06 1 8.46899e-06 7.33703e-06 1 -7.25778e-06 0 1 0 1.08239e-05 1 3.68622e-06 -1.4287e-05 1 -4.37873e-06 0 1 0 0 1 0 0 1 0 0 1 0 0 1 0 0 1 0 -4.25747e-06 -1.40798e-05 -1 -9.90165e-13 -1 -1.61969e-07 -6.1133e-06 0 -1 6.1133e-06 0 1 1 0 -7.12664e-06 1 0 -7.12664e-06 1.48525e-12 1 1.61969e-07 0.425848 0 -0.904795 0.425848 0 -0.904795 0.308876 0 -0.951102 0.308885 -7.93576e-07 -0.951099 0.187477 -4.8166e-07 -0.982269 0.187472 0 -0.98227 0.0627698 0 -0.998028 0.0627698 0 -0.998028 -0.0627698 0 -0.998028 -0.0627698 0 -0.998028 -0.187477 0 -0.982269 -0.187477 0 -0.982269 -0.308992 0 -0.951065 -0.308992 0 -0.951065 -0.425751 0 -0.90484 -0.425751 0 -0.90484 -0.535844 0 -0.844317 -0.535844 0 -0.844317 -0.968588 0 -0.248673 -0.992113 -1.28817e-06 -0.125349 -1 0 2.9663e-05 -0.992116 0 0.12532 -0.637432 0 -0.770507 -0.728949 -7.03508e-06 -0.684568 -0.809021 -6.04042e-06 -0.58778 -0.876331 0 -0.481709 -0.929776 0 -0.368125 -0.96858 0 0.248701 -0.929754 3.78367e-06 0.368181 -0.876319 0 0.481732 -0.809062 0 0.587724 -0.728934 0 0.684584 -0.637361 0 0.770565 -0.535844 0 0.844317 -0.425848 0 0.904795 -0.308876 0 0.951102 -0.187477 0 0.982269 -0.0627698 0 0.998028 0.0627698 0 0.998028 0.187363 -1.00947e-05 0.982291 0.309091 0 0.951033 0.425751 0 0.90484 7.16084e-06 1 1.00304e-05 0 1 0 0 1 0 0 1 0 -1.16163e-05 1 -3.97528e-06 0 1 0 8.96634e-06 1 -8.71427e-06 1.08899e-06 1 1.02269e-06 -8.46557e-06 1 8.9079e-06 0 1 0 0 1 0 0 1 0 0 1 0 0 1 0 -6.6427e-06 1 3.37332e-06 -1.05256e-05 1 6.45444e-06 9.10037e-07 1 -1.17557e-06 0 1 0 6.64258e-06 1 3.37313e-06 -1.221e-06 1 8.49937e-07 2.90154e-06 1 6.86691e-06 0 1 0 0 1 0 0 1 0 0 1 0 0 1 0 0 1 0 0 1 0 -1.47111e-06 1 -1.22277e-05 0 1 0 0 1 0 1.12741e-06 1 9.67989e-07 -4.67049e-06 1 -5.7728e-06 0 1 0 9.48944e-06 1 7.83107e-06 9.52458e-07 1 -1.15151e-06 7.88884e-07 1 -1.26586e-06 6.40022e-06 1 3.75501e-06 0 1 0 0 1 0 0 1 0 -1.47083e-06 1 1.22278e-05 1.48278e-06 1 1.87343e-07 1.49023e-06 1 0 1.49024e-06 1 -4.4205e-11 1.48279e-06 1 -1.873e-07 0 1 0 0 1 0 0 1 0 0 1 0 0 1 0 0 1 0 0 1 0 -4.61214e-07 1 1.42019e-06 -7.47881e-06 1 -3.72505e-07 1.23235e-05 1 6.13812e-07 9.38248e-08 1 -1.4918e-06 -7.51298e-08 1 -1.48666e-06 7.37955e-06 1 -8.14061e-07 0 1 0 -0.0504714 0 -0.998726 -0.250775 0 -0.968045 -0.440326 0 -0.897838 -0.612138 0 -0.790751 -0.758712 0 -0.651426 -0.874331 0 -0.48533 -0.954172 0 -0.299259 -0.994866 0 -0.101205 -0.994868 2.55598e-06 0.101185 -0.954123 0 0.299415 -0.874398 0 0.485209 -0.758688 1.9492e-06 0.651454 -0.612138 -8.12628e-06 0.790751 -0.440307 9.22687e-06 0.897847 -0.250787 0 0.968042 -0.0504714 0 0.998726 0.151223 0 0.9885 0.34757 0 0.937654 0.528758 0 0.848773 0.689062 0 0.724703 0.820733 0 0.571312 0.918982 0 0.394298 0.979532 0 0.201287 1 0 0 0.979523 0 -0.201334 0.918952 0 -0.39437 0.820733 0 -0.571312 0.689062 0 -0.724703 0.5289 0 -0.848684 0.347398 0 -0.937718 0.151223 0 -0.9885 -0.992115 0 -0.125334 -1 3.04873e-10 2.96665e-05 -0.992116 0 0.12532 -0.96858 0 0.248701 -0.637432 0 -0.770507 -0.729004 0 -0.684509 -0.809021 -6.04042e-06 -0.58778 -0.876304 -4.95088e-06 -0.481759 -0.929776 0 -0.368125 -0.968588 0 -0.248673 -0.92977 0 0.36814 -0.876291 4.95111e-06 0.481782 -0.809062 0 0.587724 -0.728934 0 0.684584 -0.637361 0 0.770565 -0.535844 0 0.844317 -0.425848 0 0.904795 -0.308876 0 0.951102 -0.187477 0 0.982269 -0.0627698 0 0.998028 0.0627698 0 0.998028 0.187477 0 0.982269 0.308983 -9.7738e-06 0.951067 0.425751 0 0.90484 0.151223 0 -0.9885 -0.0504714 0 -0.998726 -0.250775 0 -0.968045 -0.440326 0 -0.897838 -0.612138 0 -0.790751 -0.758712 0 -0.651426 -0.874331 0 -0.48533 -0.954172 0 -0.299259 -0.99487 2.55599e-06 -0.101157 -0.994873 0 0.101137 -0.954123 0 0.299415 -0.874377 2.24642e-06 0.485247 -0.758795 -6.69349e-06 0.651329 -0.611892 8.12824e-06 0.790941 -0.440465 0 0.89777 -0.250787 0 0.968042 -0.0504714 0 0.998726 0.151223 0 0.9885 0.34757 0 0.937654 0.528758 0 0.848773 0.689062 0 0.724703 0.820733 0 0.571312 0.918982 0 0.394298 0.979532 0 0.201287 1 0 0 0.979523 0 -0.201334 0.918952 0 -0.39437 0.820733 0 -0.571312 0.689062 0 -0.724703 0.5289 0 -0.848684 0.347398 0 -0.937718 0.535844 0 -0.844317 0.535844 0 -0.844317 0.96858 2.55581e-06 -0.248701 0.92976 3.78352e-06 -0.368166 0.929776 0 -0.368125 0.876304 0 -0.481759 0.876304 0 -0.481759 0.809048 0 -0.587743 0.809007 6.04062e-06 -0.587799 0.728934 7.03524e-06 -0.684584 0.728949 5.16229e-06 -0.684568 0.637361 6.28135e-06 -0.770565 0.637417 0 -0.770519 0.535773 0 0.844362 0.535858 8.67667e-06 0.844308 0.637502 7.91764e-06 0.770449 0.637432 0 0.770507 0.729004 0 0.684509 0.728989 -1.8729e-06 0.684525 0.809007 -2.07847e-06 0.587799 0.809021 0 0.58778 0.876304 0 0.481759 0.876304 0 0.481759 0.929786 0 0.3681 0.929786 0 0.3681 0.968588 0 0.248673 0.968588 0 0.248673 0.992115 0 0.125334 0.992115 0 0.125334 1 0 0 1 0 0 0.992116 0 -0.12532 0.992115 1.28802e-06 -0.125334 0.96858 2.55582e-06 -0.248701 1.50856e-07 1 -7.49424e-06 2.77776e-06 1 6.94326e-06 0 1 0 -1.91759e-06 1 -7.21678e-06 -4.15609e-06 1 -1.17292e-05 0 1 0 3.82764e-06 1 6.38587e-06 4.57128e-06 1 -1.14264e-05 -4.34822e-06 1 -6.09069e-06 9.5148e-07 1 -1.15016e-06 6.38558e-06 1 -3.91571e-06 1.08867e-06 1 1.02226e-06 1.20922e-06 1 8.78536e-07 1.30245e-06 1 7.22976e-07 1.30623e-06 1 7.18115e-07 1.38955e-06 1 5.50121e-07 0 1 0 0 1 0 0 1 0 -7.47331e-07 1 7.41664e-06 -2.48851e-07 1 1.23625e-05 0 -1 0 0 -1 0 0 -1 0 0 -1 0 0 -1 0 0 -1 0 0 -1 0 0 -1 0 0 -1 0 0 -1 0 0 -1 0 0 -1 0 0 -1 0 0 -1 0 0 -1 0 0 -1 0 0 -1 0 0 -1 0 0 -1 0 0 -1 0 0 -1 0 0 -1 0 0 -1 0 0 -1 0 0 -1 0 0 -1 0 0 -1 0 0 -1 0 0 -1 0 0 -1 0 0 -1 0 0 -1 0 0 -1 0 0 -1 0 0 -1 0 0 -1 0 0 -1 0 0 -1 0 0 -1 0 0 -1 0 0 -1 0 0 -1 0 0 -1 0 0 -1 0 0 -1 0 0 -1 0 0 -1 0 0 -1 0 0 -1 0 0 -1 0 0 -1 0 0 -1 0 0 -1 0 0 -1 0 0 -1 0 0 -1 0 0 -1 0 0 -1 0 0 -1 0 0 -1 0 0 -1 0 0 -1 0 0 -1 0 0 -1 0 0 -1 0 0 -1 0 0 -1 0 0 -1 0 0 -1 0 0 -1 0 0 -1 0 0 -1 0 0 -1 0 0 -1 0 0 -1 0 0 -1 0 0 -1 0 0 -1 0 0 -1 0 0 -1 0 0 -1 0 -0.968588 0 -0.248673 -0.992115 0 -0.125334 -1 0 0 -0.992115 0 0.125334 0.187477 0 -0.982269 0.0626516 0 -0.998035 -0.0627698 0 -0.998028 -0.187363 1.00947e-05 -0.982291 0.425848 0 -0.904795 0.308876 0 -0.951102 -0.308983 0 -0.951067 -0.425751 0 -0.90484 -0.535858 0 -0.844308 -0.637432 0 -0.770507 -0.729004 1.87293e-06 -0.684509 -0.809007 0 -0.587799 -0.876304 0 -0.481759 -0.929786 0 -0.3681 -0.96858 0 0.248701 -0.929776 0 0.368125 -0.876304 0 0.481759 -0.809007 0 0.587799 -0.729004 -7.03447e-06 0.684509 -0.637347 7.91896e-06 0.770577 -0.535844 0 0.844317 -0.425751 0 0.90484 -0.309099 0 0.95103 -0.187357 0 0.982292 -0.0627698 0 0.998028 0.0627698 0 0.998028 0.187477 0 0.982269 0.308992 9.77377e-06 0.951065 0.425751 -9.29874e-06 0.90484 0 1 0 1.45537e-06 1 -2.99069e-07 0 1 0 0 1 0 -4.67687e-06 1 5.78111e-06 1.02347e-06 1 1.07678e-06 1.36648e-06 1 5.86302e-07 4.21181e-06 1 -6.14761e-06 0 1 0 0 1 0 6.09852e-06 1 4.26321e-06 1.02347e-06 1 -1.07679e-06 -1.11009e-05 1 5.36949e-06 -6.423e-06 1 3.76851e-06 0 1 0 0 1 0 6.09827e-06 1 -4.263e-06 0 1 0 0 1 0 0 1 0 0 1 0 0 1 0 0 1 0 0 1 0 0 1 0 0 1 0 0 1 0 0 1 0 0 1 0 0 1 0 1.09457e-05 1 5.55833e-06 6.86644e-06 1 2.8253e-06 0 1 0 -7.15986e-06 1 1.00291e-05 -2.33825e-06 1 7.0503e-06 2.34005e-06 1 -7.05572e-06 1.45536e-06 1 2.99127e-07 -2.95635e-07 1 7.43783e-06 0 1 0 0 1 0 -2.95812e-07 1 -7.43781e-06 0 1 0 0 1 0 0 1 0 0 1 0 0 1 0 2.34004e-06 1 7.05565e-06 -2.33824e-06 1 -7.05023e-06 -4.77678e-06 1 -1.13049e-05 2.9019e-06 1 6.86775e-06 5.7169e-06 1 1.09765e-05 0 1 0 -4.67689e-06 1 -5.7811e-06 0 1 0 0 1 0 0 1 0 0 1 0 0 1 0 0 1 0 0 1 0 -0.0508632 0 -0.998706 -0.250603 -9.94874e-06 -0.96809 -0.440307 0 -0.897847 -0.612138 8.12629e-06 -0.790751 -0.758795 0 -0.651329 -0.874352 -4.98719e-06 -0.485293 -0.954123 0 -0.299415 -0.994873 0 -0.101137 -0.994868 0 0.101185 -0.954137 0 0.299371 -0.874377 -4.98672e-06 0.485247 -0.758795 0 0.651329 -0.611991 8.12745e-06 0.790865 -0.440326 0 0.897838 -0.250775 0 0.968045 -0.0504739 0 0.998725 0.151415 -3.89011e-07 0.98847 0.347225 0 0.937782 0.529041 0 0.848596 0.688934 0 0.724824 0.820756 0 0.571279 0.918982 0 0.394298 0.979524 0 0.201326 1 0 0 0.979532 0 -0.201287 0.918965 0 -0.39434 0.820756 -2.10866e-06 -0.571279 0.688934 0 -0.724824 0.5289 0 -0.848684 0.347398 0 -0.937718 0.151415 0 -0.98847 -0.992115 0 -0.125334 -1 0 0 -0.992115 0 0.125334 -0.96858 0 0.248701 0.187477 0 -0.982269 0.0626516 0 -0.998035 -0.0627698 0 -0.998028 -0.187248 0 -0.982313 0.425751 9.29874e-06 -0.90484 0.308876 0 -0.951102 -0.309091 9.77344e-06 -0.951033 -0.425751 0 -0.90484 -0.535858 0 -0.844308 -0.637432 0 -0.770507 -0.728989 0 -0.684525 -0.809021 2.07851e-06 -0.58778 -0.876304 0 -0.481759 -0.929786 0 -0.3681 -0.968588 0 -0.248673 -0.929776 0 0.368125 -0.876304 0 0.481759 -0.809007 0 0.587799 -0.728949 0 0.684568 -0.637488 -7.91776e-06 0.770461 -0.53576 8.67731e-06 0.84437 -0.425751 0 0.90484 -0.309099 0 0.95103 -0.187357 0 0.982292 -0.0627698 0 0.998028 0.0627698 0 0.998028 0.187477 0 0.982269 0.308885 0 0.951099 0.425946 9.2978e-06 0.904749 0.151415 0 -0.98847 -0.0506673 -1.02635e-05 -0.998716 -0.250787 0 -0.968042 -0.440465 9.22608e-06 -0.89777 -0.612015 0 -0.790846 -0.758712 -6.69448e-06 -0.651426 -0.874398 0 -0.485209 -0.954123 0 -0.299415 -0.994873 0 -0.101137 -0.994868 0 0.101185 -0.954154 -3.07596e-06 0.299315 -0.874331 0 0.48533 -0.758712 6.69449e-06 0.651426 -0.612114 0 0.79077 -0.440326 0 0.897838 -0.250775 0 0.968045 -0.0504714 1.29669e-07 0.998726 0.151423 0 0.988469 0.347225 0 0.937782 0.529041 0 0.848596 0.688934 0 0.724824 0.820756 0 0.571279 0.918982 0 0.394298 0.979524 0 0.201326 1 0 0 0.979532 0 -0.201287 0.918982 -2.36102e-06 -0.394298 0.820733 0 -0.571312 0.688934 0 -0.724824 0.5289 0 -0.848684 0.347398 0 -0.937718 0.96858 0 -0.248701 0.92977 0 -0.36814 0.92977 0 -0.36814 0.876319 0 -0.481732 0.876291 4.95111e-06 -0.481782 0.80898 6.041e-06 -0.587837 0.809062 -6.03984e-06 -0.587724 0.728989 -7.03464e-06 -0.684525 0.728934 0 -0.684584 0.637361 0 -0.770565 0.637361 0 -0.770565 0.535929 0 -0.844263 0.535844 8.67676e-06 -0.844317 0.535844 -8.67676e-06 0.844317 0.535844 -8.67676e-06 0.844317 0.637361 -7.91884e-06 0.770565 0.637432 0 0.770507 0.728949 0 0.684568 0.728949 0 0.684568 0.809021 0 0.58778 0.809021 0 0.58778 0.876304 0 0.481759 0.876304 0 0.481759 0.929776 0 0.368125 0.929792 3.78268e-06 0.368085 0.968588 2.55553e-06 0.248673 0.96858 0 0.248702 0.992115 0 0.125334 0.992115 0 0.125334 1 0 -2.96595e-05 1 3.04837e-10 -2.9663e-05 0.992115 1.28802e-06 -0.125334 0.992116 0 -0.12532 0.96858 0 -0.248701 0 1 0 0 1 0 0 1 0 0 1 0 0 1 0 0 1 0 0 1 0 0 1 0 0 1 0 0 1 0 0 1 0 0 1 0 1.20919e-06 1 8.78516e-07 7.61672e-06 1 -9.81111e-06 0 1 0 0 1 0 0 1 0 0 1 0 0 1 0 0 1 0 0 1 0 7.47863e-06 -1 3.72497e-07 -6.73853e-06 -1 -3.25937e-06 0 -1 0 0 -1 0 0 -1 0 0 -1 0 0 -1 0 0 -1 0 0 -1 0 -1.23234e-05 -1 -6.13806e-07 0 -1 0 0 -1 0 0 -1 0 0 -1 0 0 -1 0 0 -1 0 0 -1 0 0 -1 0 0 -1 0 0 -1 0 0 -1 0 0 -1 0 0 -1 0 0 -1 0 0 -1 0 0 -1 0 0 -1 0 0 -1 0 0 -1 0 0 -1 0 0 -1 0 0 -1 0 0 -1 0 6.87866e-06 -1 -2.83041e-06 -3.7256e-07 -1 -1.43809e-06 -2.80138e-07 -1 -1.46775e-06 1.21458e-05 -1 -2.8385e-06 -7.32311e-06 -1 1.71142e-06 -9.3827e-08 -1 1.49183e-06 0 -1 0 0 -1 0 0 -1 0 0 -1 0 0 -1 0 0 -1 0 0 -1 0 0 -1 0 0 -1 0 0 -1 0 0 -1 0 0 -1 0 0 -1 0 0 -1 0 0 -1 0 0 -1 0 0 -1 0 0 -1 0 0 -1 0 0 -1 0 0 -1 0 0 -1 0 -4.60438e-06 -1 -5.93082e-06 0 -1 0 0 -1 0 0 -1 0 1.91784e-06 -1 7.21766e-06 -1.30358e-06 -1 -7.23367e-07 1.91758e-06 -1 -7.21678e-06 0 -1 0 0 -1 0 -6.38603e-06 -1 -3.9159e-06 4.34772e-06 -1 6.08999e-06 -3.81542e-06 -1 6.36553e-06 0 -1 0 4.3482e-06 -1 -6.09071e-06 -6.38592e-06 -1 3.91603e-06 0 -1 0 0 -1 0 0 -1 0 -1.50856e-07 -1 -7.49424e-06 -2.77778e-06 -1 6.94334e-06</float_array>
                    <technique_common>
                        <accessor count="1268" source="#shape0-lib-normals-array" stride="3">
                            <param name="X" type="float"/>
                            <param name="Y" type="float"/>
                            <param name="Z" type="float"/>
                        </accessor>
                    </technique_common>
                </source>
                <vertices id="shape0-lib-vertices">
                    <input semantic="POSITION" source="#shape0-lib-positions"/>
                </vertices>
                <triangles count="1268">
                    <input offset="0" semantic="VERTEX" source="#shape0-lib-vertices"/>
                    <input offset="1" semantic="NORMAL" source="#shape0-lib-normals"/>
                    <p>5 0 117 0 0 0 4 1 8 1 172 1 2 2 4 2 172 2 3 3 4 3 1 3 1 4 4 4 2 4 3 5 117 5 5 5 3 6 5 6 4 6 4 7 5 7 6 7 4 8 6 8 8 8 8 9 6 9 7 9 6 10 5 10 168 10 8 11 7 11 171 11 10 12 9 12 3 12 1 13 10 13 3 13 7 14 6 14 167 14 1 15 2 15 11 15 11 16 2 16 12 16 1 17 245 17 10 17 12 18 2 18 173 18 11 19 245 19 1 19 11 20 12 20 306 20 306 21 245 21 11 21 24 22 99 22 13 22 13 23 99 23 94 23 13 24 94 24 15 24 285 25 108 25 22 25 14 26 113 26 111 26 13 27 15 27 49 27 13 28 57 28 86 28 16 29 147 29 43 29 43 30 147 30 17 30 43 31 34 31 16 31 16 32 34 32 18 32 16 33 18 33 263 33 263 34 18 34 265 34 13 35 49 35 19 35 19 36 49 36 52 36 19 37 52 37 17 37 13 38 14 38 110 38 110 39 14 39 111 39 22 40 163 40 296 40 104 41 42 41 285 41 285 42 42 42 21 42 148 43 19 43 20 43 20 44 19 44 17 44 285 45 261 45 104 45 271 46 285 46 22 46 150 47 20 47 151 47 151 48 20 48 17 48 151 49 17 49 152 49 152 50 17 50 147 50 265 51 65 51 284 51 284 52 65 52 58 52 21 53 57 53 285 53 285 54 57 54 13 54 285 55 13 55 108 55 108 56 13 56 110 56 269 57 271 57 22 57 269 58 22 58 266 58 86 59 23 59 13 59 13 60 23 60 82 60 13 61 82 61 24 61 112 62 114 62 109 62 107 63 30 63 120 63 120 64 30 64 119 64 29 65 149 65 146 65 146 66 149 66 25 66 145 67 275 67 26 67 27 68 25 68 28 68 28 69 25 69 149 69 279 70 106 70 26 70 26 71 106 71 29 71 26 72 29 72 145 72 145 73 29 73 146 73 115 74 106 74 114 74 114 75 106 75 30 75 114 76 30 76 109 76 109 77 30 77 107 77 49 78 15 78 31 78 31 79 15 79 93 79 51 80 32 80 137 80 132 81 39 81 48 81 48 82 39 82 41 82 44 83 33 83 43 83 43 84 33 84 34 84 40 85 35 85 41 85 41 86 35 86 46 86 46 87 35 87 61 87 46 88 61 88 44 88 44 89 61 89 36 89 44 90 36 90 33 90 33 91 36 91 59 91 59 92 63 92 18 92 18 93 63 93 265 93 57 94 21 94 56 94 56 95 21 95 55 95 37 96 38 96 122 96 39 97 40 97 41 97 33 98 59 98 34 98 34 99 59 99 18 99 21 100 42 100 55 100 55 101 42 101 66 101 43 102 17 102 44 102 44 103 17 103 45 103 44 104 45 104 46 104 46 105 45 105 47 105 46 106 47 106 41 106 41 107 47 107 48 107 48 108 53 108 132 108 132 109 53 109 134 109 52 110 49 110 47 110 47 111 49 111 31 111 31 112 93 112 53 112 53 113 93 113 100 113 53 114 100 114 134 114 134 115 100 115 50 115 134 116 50 116 136 116 136 117 50 117 51 117 136 118 51 118 137 118 17 119 52 119 45 119 45 120 52 120 47 120 47 121 31 121 48 121 48 122 31 122 53 122 122 123 54 123 37 123 37 124 54 124 68 124 68 125 54 125 77 125 68 126 77 126 66 126 66 127 77 127 84 127 66 128 84 128 55 128 55 129 84 129 56 129 56 130 85 130 57 130 57 131 85 131 86 131 58 132 65 132 79 132 79 133 65 133 64 133 64 134 63 134 81 134 81 135 63 135 59 135 81 136 59 136 60 136 60 137 59 137 36 137 60 138 36 138 62 138 62 139 36 139 61 139 62 140 61 140 130 140 35 141 130 141 61 141 63 142 64 142 265 142 265 143 64 143 65 143 42 144 104 144 66 144 66 145 104 145 67 145 66 146 67 146 68 146 68 147 67 147 69 147 68 148 69 148 37 148 37 149 69 149 70 149 37 150 70 150 38 150 38 151 70 151 105 151 99 152 24 152 101 152 101 153 24 153 71 153 72 154 76 154 103 154 82 155 23 155 73 155 73 156 23 156 87 156 73 157 87 157 74 157 74 158 87 158 85 158 74 159 85 159 72 159 72 160 85 160 75 160 72 161 75 161 76 161 76 162 75 162 84 162 76 163 84 163 142 163 142 164 84 164 77 164 142 165 77 165 143 165 260 166 78 166 96 166 96 167 78 167 97 167 97 168 79 168 91 168 91 169 79 169 83 169 83 170 81 170 80 170 80 171 81 171 60 171 80 172 60 172 129 172 24 173 82 173 71 173 71 174 82 174 73 174 62 175 129 175 60 175 81 176 83 176 64 176 64 177 83 177 79 177 79 178 97 178 58 178 58 179 97 179 78 179 54 180 143 180 77 180 84 181 75 181 56 181 56 182 75 182 85 182 85 183 87 183 86 183 86 184 87 184 23 184 261 185 88 185 69 185 69 186 88 186 95 186 69 187 95 187 70 187 70 188 95 188 96 188 70 189 96 189 89 189 89 190 96 190 90 190 89 191 90 191 92 191 92 192 90 192 91 192 92 193 91 193 125 193 125 194 91 194 98 194 15 195 94 195 93 195 93 196 94 196 100 196 88 197 260 197 95 197 95 198 260 198 96 198 96 199 97 199 90 199 90 200 97 200 91 200 91 201 83 201 98 201 98 202 83 202 80 202 94 203 99 203 100 203 100 204 99 204 101 204 100 205 101 205 50 205 50 206 101 206 71 206 50 207 71 207 51 207 51 208 71 208 73 208 51 209 73 209 32 209 32 210 73 210 74 210 32 211 74 211 102 211 102 212 74 212 72 212 102 213 72 213 103 213 104 214 261 214 67 214 67 215 261 215 69 215 70 216 89 216 105 216 105 217 89 217 92 217 275 218 145 218 16 218 16 219 145 219 147 219 29 220 106 220 19 220 19 221 106 221 13 221 22 222 108 222 120 222 120 223 108 223 107 223 107 224 108 224 110 224 107 225 110 225 109 225 109 226 110 226 111 226 109 227 111 227 112 227 112 228 111 228 113 228 112 229 113 229 114 229 114 230 113 230 14 230 114 231 14 231 115 231 115 232 14 232 13 232 115 233 13 233 106 233 116 234 165 234 117 234 117 235 165 235 163 235 117 236 163 236 118 236 118 237 163 237 22 237 118 238 22 238 119 238 119 239 22 239 120 239 116 240 117 240 3 240 30 241 118 241 119 241 117 242 118 242 281 242 3 243 9 243 116 243 165 244 116 244 9 244 144 245 54 245 121 245 121 246 54 246 122 246 121 247 122 247 123 247 123 248 122 248 38 248 123 249 38 249 155 249 155 250 38 250 105 250 155 251 105 251 124 251 124 252 105 252 92 252 124 253 92 253 156 253 156 254 92 254 125 254 156 255 125 255 126 255 126 256 125 256 98 256 126 257 98 257 127 257 127 258 98 258 80 258 127 259 80 259 128 259 128 260 80 260 129 260 128 261 129 261 153 261 153 262 129 262 62 262 153 263 62 263 154 263 154 264 62 264 130 264 154 265 130 265 158 265 158 266 130 266 35 266 158 267 35 267 161 267 161 268 35 268 40 268 161 269 40 269 131 269 131 270 40 270 39 270 131 271 39 271 133 271 133 272 39 272 132 272 133 273 132 273 160 273 160 274 132 274 134 274 160 275 134 275 135 275 135 276 134 276 136 276 135 277 136 277 159 277 159 278 136 278 137 278 159 279 137 279 138 279 138 280 137 280 32 280 138 281 32 281 139 281 139 282 32 282 102 282 139 283 102 283 157 283 157 284 102 284 103 284 157 285 103 285 140 285 140 286 103 286 76 286 140 287 76 287 141 287 141 288 76 288 142 288 141 289 142 289 162 289 162 290 142 290 143 290 162 291 143 291 144 291 144 292 143 292 54 292 145 293 146 293 147 293 147 294 146 294 152 294 19 295 148 295 29 295 29 296 148 296 149 296 149 297 148 297 20 297 149 298 20 298 28 298 28 299 20 299 150 299 28 300 150 300 27 300 27 301 150 301 151 301 27 302 151 302 25 302 25 303 151 303 152 303 25 304 152 304 146 304 162 305 144 305 156 305 156 306 144 306 121 306 156 307 121 307 155 307 155 308 121 308 123 308 153 309 154 309 158 309 140 310 141 310 162 310 159 311 138 311 139 311 155 312 124 312 156 312 157 313 158 313 139 313 127 314 128 314 126 314 126 315 128 315 162 315 126 316 162 316 156 316 139 317 158 317 159 317 159 318 158 318 160 318 159 319 160 319 135 319 161 320 131 320 158 320 158 321 131 321 133 321 158 322 133 322 160 322 157 323 140 323 158 323 158 324 140 324 162 324 158 325 162 325 153 325 153 326 162 326 128 326 163 327 164 327 292 327 306 328 12 328 164 328 306 329 164 329 165 329 165 330 164 330 163 330 306 331 165 331 166 331 166 332 165 332 9 332 171 333 167 333 172 333 172 334 167 334 168 334 225 335 0 335 226 335 226 336 0 336 281 336 222 337 221 337 0 337 0 338 221 338 220 338 0 339 220 339 218 339 225 340 224 340 0 340 0 341 224 341 169 341 0 342 169 342 222 342 172 343 8 343 171 343 9 344 10 344 283 344 10 345 170 345 283 345 168 346 5 346 0 346 171 347 7 347 167 347 167 348 6 348 168 348 190 349 173 349 183 349 172 350 168 350 173 350 173 351 168 351 0 351 173 352 0 352 218 352 214 353 173 353 217 353 217 354 173 354 218 354 293 355 292 355 173 355 293 356 173 356 174 356 203 357 175 357 186 357 186 358 175 358 176 358 186 359 176 359 177 359 177 360 176 360 178 360 177 361 178 361 235 361 235 362 178 362 200 362 235 363 200 363 179 363 179 364 200 364 199 364 179 365 199 365 184 365 184 366 199 366 180 366 184 367 180 367 196 367 190 368 181 368 173 368 173 369 181 369 188 369 173 370 188 370 174 370 194 371 182 371 173 371 173 372 182 372 192 372 173 373 192 373 183 373 196 374 194 374 184 374 184 375 194 375 173 375 184 376 173 376 185 376 185 377 173 377 214 377 203 378 186 378 206 378 187 379 188 379 244 379 244 380 188 380 181 380 244 381 181 381 189 381 189 382 181 382 190 382 189 383 190 383 191 383 191 384 190 384 183 384 191 385 183 385 249 385 249 386 183 386 192 386 249 387 192 387 193 387 193 388 192 388 182 388 193 389 182 389 248 389 248 390 182 390 194 390 248 391 194 391 195 391 195 392 194 392 196 392 195 393 196 393 197 393 197 394 196 394 180 394 197 395 180 395 240 395 240 396 180 396 199 396 240 397 199 397 198 397 198 398 199 398 200 398 198 399 200 399 246 399 246 400 200 400 178 400 246 401 178 401 201 401 201 402 178 402 176 402 201 403 176 403 202 403 202 404 176 404 175 404 202 405 175 405 302 405 302 406 175 406 203 406 302 407 203 407 204 407 204 408 203 408 206 408 204 409 206 409 205 409 205 410 206 410 207 410 205 411 207 411 300 411 300 412 207 412 208 412 300 413 208 413 210 413 210 414 208 414 209 414 210 415 209 415 301 415 301 416 209 416 291 416 301 417 291 417 297 417 297 418 291 418 295 418 297 419 295 419 298 419 298 420 295 420 211 420 298 421 211 421 299 421 299 422 211 422 293 422 299 423 293 423 212 423 212 424 293 424 174 424 212 425 174 425 187 425 187 426 174 426 188 426 247 427 184 427 213 427 213 428 184 428 185 428 213 429 185 429 215 429 215 430 185 430 214 430 215 431 214 431 216 431 216 432 214 432 217 432 216 433 217 433 238 433 238 434 217 434 218 434 238 435 218 435 219 435 219 436 218 436 220 436 219 437 220 437 242 437 242 438 220 438 221 438 242 439 221 439 237 439 237 440 221 440 222 440 237 441 222 441 223 441 223 442 222 442 169 442 223 443 169 443 241 443 241 444 169 444 224 444 241 445 224 445 170 445 170 446 224 446 225 446 170 447 225 447 283 447 283 448 225 448 226 448 283 449 226 449 282 449 282 450 226 450 257 450 282 451 257 451 227 451 227 452 257 452 228 452 227 453 228 453 304 453 304 454 228 454 256 454 304 455 256 455 305 455 305 456 256 456 259 456 305 457 259 457 303 457 303 458 259 458 258 458 303 459 258 459 229 459 229 460 258 460 230 460 229 461 230 461 243 461 243 462 230 462 232 462 243 463 232 463 231 463 231 464 232 464 294 464 231 465 294 465 236 465 236 466 294 466 186 466 236 467 186 467 233 467 233 468 186 468 177 468 233 469 177 469 234 469 234 470 177 470 235 470 234 471 235 471 239 471 239 472 235 472 179 472 239 473 179 473 247 473 247 474 179 474 184 474 173 475 2 475 172 475 12 476 173 476 164 476 231 477 236 477 240 477 240 478 236 478 233 478 240 479 233 479 234 479 10 480 237 480 223 480 299 481 245 481 166 481 10 482 245 482 238 482 238 483 245 483 216 483 248 484 195 484 239 484 239 485 195 485 197 485 239 486 197 486 234 486 234 487 197 487 240 487 223 488 241 488 10 488 10 489 241 489 170 489 238 490 219 490 10 490 10 491 219 491 242 491 10 492 242 492 237 492 247 493 213 493 245 493 245 494 213 494 215 494 245 495 215 495 216 495 246 496 201 496 243 496 299 497 212 497 245 497 245 498 212 498 187 498 245 499 187 499 244 499 244 500 189 500 245 500 245 501 189 501 191 501 245 502 191 502 249 502 231 503 240 503 243 503 243 504 240 504 198 504 243 505 198 505 246 505 239 506 247 506 248 506 248 507 247 507 245 507 248 508 245 508 193 508 193 509 245 509 249 509 251 510 252 510 253 510 254 511 250 511 252 511 173 512 254 512 251 512 251 513 254 513 252 513 253 514 173 514 251 514 307 515 254 515 173 515 296 516 281 516 255 516 296 517 255 517 280 517 280 518 255 518 30 518 226 519 281 519 257 519 259 520 256 520 281 520 281 521 256 521 228 521 281 522 228 522 257 522 281 523 258 523 259 523 260 524 285 524 78 524 78 525 285 525 284 525 260 526 88 526 285 526 285 527 88 527 261 527 262 528 285 528 271 528 284 529 58 529 78 529 286 530 263 530 264 530 264 531 263 531 265 531 284 532 290 532 265 532 265 533 290 533 288 533 265 534 288 534 264 534 270 535 271 535 269 535 266 536 22 536 296 536 280 537 267 537 296 537 296 538 267 538 266 538 266 539 267 539 268 539 266 540 268 540 269 540 269 541 268 541 273 541 269 542 273 542 270 542 270 543 273 543 274 543 270 544 274 544 271 544 271 545 274 545 272 545 271 546 272 546 262 546 262 547 272 547 279 547 262 548 279 548 285 548 273 549 268 549 274 549 274 550 268 550 272 550 106 551 280 551 30 551 279 552 272 552 267 552 267 553 272 553 268 553 26 554 275 554 276 554 26 555 276 555 277 555 277 556 276 556 278 556 277 557 278 557 289 557 289 558 278 558 287 558 267 559 280 559 279 559 279 560 280 560 106 560 0 561 117 561 281 561 282 562 9 562 283 562 284 563 285 563 26 563 26 564 285 564 279 564 255 565 118 565 30 565 281 566 118 566 255 566 16 567 263 567 275 567 275 568 263 568 276 568 276 569 263 569 286 569 276 570 286 570 278 570 278 571 286 571 264 571 278 572 264 572 287 572 287 573 264 573 288 573 287 574 288 574 289 574 277 575 289 575 290 575 290 576 289 576 288 576 26 577 277 577 284 577 284 578 277 578 290 578 291 579 209 579 292 579 292 580 209 580 208 580 292 581 208 581 207 581 292 582 186 582 294 582 292 583 281 583 296 583 211 584 292 584 293 584 294 585 232 585 292 585 292 586 232 586 230 586 292 587 230 587 281 587 281 588 230 588 258 588 291 589 292 589 295 589 295 590 292 590 211 590 206 591 186 591 292 591 206 592 292 592 207 592 296 593 163 593 292 593 164 594 173 594 292 594 9 595 201 595 202 595 166 596 9 596 205 596 227 597 9 597 282 597 301 598 297 598 166 598 166 599 297 599 298 599 166 600 298 600 299 600 205 601 300 601 166 601 166 602 300 602 210 602 166 603 210 603 301 603 202 604 302 604 9 604 9 605 302 605 204 605 9 606 204 606 205 606 243 607 201 607 9 607 243 608 9 608 229 608 229 609 9 609 303 609 227 610 304 610 9 610 9 611 304 611 305 611 9 612 305 612 303 612 166 613 245 613 306 613 253 614 252 614 308 614 252 615 250 615 308 615 307 616 173 616 253 616 250 617 307 617 308 617 308 618 307 618 253 618 250 619 254 619 307 619 352 620 395 620 455 620 352 621 455 621 309 621 309 622 455 622 454 622 309 623 454 623 310 623 310 624 454 624 453 624 310 625 453 625 311 625 311 626 453 626 449 626 311 627 449 627 354 627 354 628 449 628 313 628 354 629 313 629 312 629 312 630 313 630 315 630 312 631 315 631 314 631 314 632 315 632 317 632 314 633 317 633 316 633 316 634 317 634 319 634 316 635 319 635 318 635 318 636 319 636 320 636 318 637 320 637 321 637 322 638 437 638 323 638 323 639 436 639 348 639 348 640 432 640 350 640 350 641 431 641 351 641 321 642 324 642 341 642 341 643 444 643 325 643 325 644 442 644 372 644 372 645 440 645 373 645 373 646 326 646 322 646 351 647 327 647 328 647 328 648 451 648 342 648 342 649 450 649 339 649 339 650 374 650 329 650 329 651 427 651 343 651 343 652 425 652 330 652 330 653 375 653 344 653 344 654 331 654 345 654 345 655 423 655 356 655 356 656 428 656 357 656 357 657 376 657 377 657 377 658 379 658 378 658 378 659 445 659 359 659 359 660 380 660 334 660 334 661 434 661 335 661 364 662 385 662 399 662 367 663 355 663 312 663 369 664 332 664 342 664 362 665 382 665 359 665 371 666 370 666 345 666 372 667 333 667 325 667 325 668 333 668 389 668 325 669 389 669 341 669 341 670 389 670 340 670 346 671 333 671 373 671 373 672 333 672 372 672 363 673 362 673 334 673 334 674 362 674 359 674 334 675 335 675 363 675 363 676 335 676 336 676 363 677 336 677 417 677 364 678 337 678 365 678 338 679 365 679 352 679 352 680 365 680 337 680 392 681 369 681 339 681 339 682 369 682 342 682 312 683 314 683 367 683 367 684 314 684 316 684 367 685 316 685 388 685 388 686 316 686 318 686 388 687 318 687 340 687 340 688 318 688 321 688 340 689 321 689 341 689 349 690 351 690 332 690 332 691 351 691 328 691 332 692 328 692 342 692 417 693 403 693 383 693 339 694 329 694 392 694 392 695 329 695 343 695 392 696 343 696 394 696 394 697 343 697 330 697 394 698 330 698 370 698 370 699 330 699 344 699 370 700 344 700 345 700 373 701 322 701 346 701 346 702 322 702 323 702 346 703 323 703 347 703 347 704 323 704 348 704 347 705 348 705 349 705 349 706 348 706 350 706 349 707 350 707 351 707 352 708 309 708 338 708 338 709 309 709 310 709 338 710 310 710 353 710 353 711 310 711 311 711 353 712 311 712 355 712 355 713 311 713 354 713 355 714 354 714 312 714 345 715 356 715 371 715 371 716 356 716 357 716 371 717 357 717 358 717 358 718 357 718 377 718 358 719 377 719 382 719 382 720 377 720 378 720 382 721 378 721 359 721 446 722 358 722 382 722 360 723 382 723 362 723 361 724 362 724 363 724 435 725 363 725 417 725 470 726 417 726 383 726 384 727 383 727 418 727 468 728 418 728 420 728 467 729 420 729 422 729 458 730 422 730 413 730 457 731 413 731 414 731 464 732 414 732 385 732 463 733 385 733 364 733 461 734 364 734 365 734 386 735 365 735 338 735 456 736 338 736 353 736 366 737 353 737 355 737 448 738 355 738 367 738 387 739 367 739 388 739 430 740 388 740 340 740 368 741 340 741 389 741 443 742 389 742 333 742 441 743 333 743 346 743 439 744 346 744 347 744 433 745 347 745 349 745 390 746 349 746 332 746 452 747 332 747 369 747 391 748 369 748 392 748 393 749 392 749 394 749 426 750 394 750 370 750 424 751 370 751 371 751 381 752 371 752 358 752 323 753 437 753 436 753 348 754 436 754 432 754 350 755 432 755 431 755 351 756 431 756 327 756 321 757 320 757 324 757 341 758 324 758 444 758 325 759 444 759 442 759 372 760 442 760 440 760 373 761 440 761 326 761 322 762 326 762 437 762 328 763 327 763 451 763 342 764 451 764 450 764 339 765 450 765 374 765 329 766 374 766 427 766 343 767 427 767 425 767 330 768 425 768 375 768 344 769 375 769 331 769 345 770 331 770 423 770 356 771 423 771 428 771 357 772 428 772 376 772 377 773 376 773 379 773 378 774 379 774 445 774 359 775 445 775 380 775 334 776 380 776 434 776 381 777 358 777 446 777 446 778 382 778 360 778 360 779 362 779 361 779 361 780 363 780 435 780 435 781 417 781 470 781 470 782 383 782 384 782 384 783 418 783 468 783 468 784 420 784 467 784 467 785 422 785 458 785 458 786 413 786 457 786 457 787 414 787 464 787 464 788 385 788 463 788 463 789 364 789 461 789 461 790 365 790 386 790 386 791 338 791 456 791 456 792 353 792 366 792 366 793 355 793 448 793 448 794 367 794 387 794 387 795 388 795 430 795 430 796 340 796 368 796 368 797 389 797 443 797 443 798 333 798 441 798 441 799 346 799 439 799 439 800 347 800 433 800 433 801 349 801 390 801 390 802 332 802 452 802 452 803 369 803 391 803 391 804 392 804 393 804 393 805 394 805 426 805 426 806 370 806 424 806 424 807 371 807 381 807 337 808 429 808 395 808 337 809 395 809 352 809 412 810 397 810 396 810 396 811 397 811 466 811 396 812 466 812 398 812 398 813 466 813 465 813 398 814 465 814 415 814 415 815 465 815 438 815 415 816 438 816 399 816 399 817 438 817 462 817 399 818 462 818 416 818 416 819 462 819 429 819 416 820 429 820 337 820 335 821 434 821 400 821 335 822 400 822 336 822 336 823 400 823 401 823 336 824 401 824 402 824 402 825 401 825 447 825 402 826 447 826 403 826 403 827 447 827 469 827 403 828 469 828 405 828 405 829 469 829 404 829 405 830 404 830 406 830 406 831 404 831 407 831 406 832 407 832 408 832 408 833 407 833 409 833 408 834 409 834 419 834 419 835 409 835 460 835 419 836 460 836 421 836 421 837 460 837 459 837 421 838 459 838 410 838 410 839 459 839 411 839 410 840 411 840 412 840 412 841 411 841 397 841 410 842 412 842 413 842 413 843 412 843 396 843 413 844 396 844 414 844 414 845 396 845 398 845 414 846 398 846 385 846 385 847 398 847 415 847 385 848 415 848 399 848 420 849 418 849 408 849 399 850 416 850 364 850 364 851 416 851 337 851 336 852 402 852 417 852 417 853 402 853 403 853 383 854 403 854 405 854 383 855 405 855 418 855 418 856 405 856 406 856 418 857 406 857 408 857 408 858 419 858 420 858 420 859 419 859 421 859 420 860 421 860 422 860 422 861 421 861 410 861 422 862 410 862 413 862 428 863 423 863 381 863 381 864 423 864 331 864 381 865 331 865 424 865 424 866 331 866 375 866 424 867 375 867 426 867 426 868 375 868 425 868 426 869 425 869 427 869 393 870 426 870 427 870 381 871 446 871 428 871 461 872 386 872 429 872 435 873 470 873 400 873 443 874 324 874 368 874 368 875 324 875 320 875 368 876 320 876 430 876 320 877 319 877 430 877 430 878 319 878 317 878 430 879 317 879 387 879 452 880 431 880 390 880 390 881 431 881 432 881 390 882 432 882 433 882 361 883 435 883 434 883 434 884 435 884 400 884 391 885 393 885 374 885 374 886 393 886 427 886 432 887 436 887 433 887 433 888 436 888 437 888 433 889 437 889 439 889 461 890 438 890 463 890 437 891 326 891 439 891 439 892 326 892 440 892 439 893 440 893 441 893 441 894 440 894 442 894 441 895 442 895 443 895 443 896 442 896 444 896 443 897 444 897 324 897 434 898 380 898 361 898 361 899 380 899 445 899 361 900 445 900 360 900 360 901 445 901 379 901 360 902 379 902 446 902 446 903 379 903 376 903 446 904 376 904 428 904 384 905 447 905 470 905 317 906 315 906 387 906 387 907 315 907 313 907 387 908 313 908 448 908 448 909 313 909 449 909 448 910 449 910 366 910 374 911 450 911 391 911 391 912 450 912 451 912 391 913 451 913 452 913 452 914 451 914 327 914 452 915 327 915 431 915 449 916 453 916 366 916 366 917 453 917 454 917 366 918 454 918 456 918 456 919 454 919 455 919 456 920 455 920 386 920 386 921 455 921 395 921 386 922 395 922 429 922 467 923 458 923 460 923 464 924 397 924 457 924 457 925 397 925 411 925 457 926 411 926 458 926 458 927 411 927 459 927 458 928 459 928 460 928 429 929 462 929 461 929 461 930 462 930 438 930 463 931 438 931 465 931 463 932 465 932 464 932 464 933 465 933 466 933 464 934 466 934 397 934 460 935 409 935 467 935 467 936 409 936 407 936 467 937 407 937 468 937 468 938 407 938 404 938 468 939 404 939 384 939 404 940 469 940 384 940 384 941 469 941 447 941 470 942 447 942 401 942 470 943 401 943 400 943 471 944 615 944 505 944 505 945 529 945 506 945 506 946 530 946 508 946 508 947 531 947 509 947 532 948 620 948 472 948 472 949 619 949 510 949 510 950 617 950 511 950 511 951 473 951 474 951 475 952 600 952 534 952 534 953 476 953 532 953 474 954 606 954 535 954 535 955 536 955 496 955 496 956 604 956 537 956 537 957 538 957 477 957 477 958 539 958 540 958 540 959 603 959 489 959 489 960 616 960 491 960 491 961 478 961 471 961 509 962 611 962 479 962 479 963 541 963 480 963 480 964 542 964 481 964 481 965 599 965 513 965 513 966 543 966 514 966 514 967 482 967 483 967 483 968 544 968 499 968 499 969 545 969 484 969 484 970 594 970 485 970 485 971 610 971 486 971 486 972 546 972 515 972 515 973 608 973 547 973 547 974 548 974 516 974 516 975 549 975 487 975 487 976 488 976 497 976 503 977 585 977 568 977 527 978 507 978 509 978 489 979 525 979 540 979 540 980 525 980 490 980 540 981 490 981 477 981 477 982 490 982 524 982 526 983 525 983 491 983 491 984 525 984 489 984 499 985 492 985 483 985 483 986 492 986 493 986 483 987 493 987 514 987 514 988 493 988 494 988 512 989 535 989 495 989 495 990 535 990 496 990 495 991 496 991 524 991 524 992 496 992 537 992 524 993 537 993 477 993 497 994 502 994 487 994 487 995 502 995 518 995 487 996 518 996 516 996 516 997 518 997 551 997 498 998 532 998 523 998 523 999 532 999 472 999 523 1000 472 1000 557 1000 565 1001 492 1001 484 1001 484 1002 492 1002 499 1002 500 1003 502 1003 501 1003 501 1004 502 1004 497 1004 503 1005 572 1005 504 1005 504 1006 572 1006 475 1006 504 1007 475 1007 498 1007 498 1008 475 1008 534 1008 498 1009 534 1009 532 1009 500 1010 575 1010 588 1010 491 1011 471 1011 526 1011 526 1012 471 1012 505 1012 526 1013 505 1013 562 1013 562 1014 505 1014 506 1014 562 1015 506 1015 507 1015 507 1016 506 1016 508 1016 507 1017 508 1017 509 1017 472 1018 510 1018 557 1018 557 1019 510 1019 511 1019 557 1020 511 1020 512 1020 512 1021 511 1021 474 1021 512 1022 474 1022 535 1022 509 1023 479 1023 527 1023 527 1024 479 1024 480 1024 527 1025 480 1025 563 1025 563 1026 480 1026 481 1026 563 1027 481 1027 494 1027 494 1028 481 1028 513 1028 494 1029 513 1029 514 1029 484 1030 485 1030 565 1030 565 1031 485 1031 486 1031 565 1032 486 1032 517 1032 517 1033 486 1033 515 1033 517 1034 515 1034 551 1034 551 1035 515 1035 547 1035 551 1036 547 1036 516 1036 609 1037 517 1037 551 1037 607 1038 551 1038 518 1038 552 1039 518 1039 502 1039 553 1040 502 1040 500 1040 613 1041 500 1041 588 1041 625 1042 588 1042 589 1042 554 1043 589 1043 592 1043 519 1044 592 1044 520 1044 631 1045 520 1045 555 1045 623 1046 555 1046 584 1046 556 1047 584 1047 585 1047 622 1048 585 1048 503 1048 628 1049 503 1049 504 1049 521 1050 504 1050 498 1050 601 1051 498 1051 523 1051 522 1052 523 1052 557 1052 618 1053 557 1053 512 1053 558 1054 512 1054 495 1054 605 1055 495 1055 524 1055 559 1056 524 1056 490 1056 598 1057 490 1057 525 1057 560 1058 525 1058 526 1058 561 1059 526 1059 562 1059 614 1060 562 1060 507 1060 612 1061 507 1061 527 1061 602 1062 527 1062 563 1062 528 1063 563 1063 494 1063 564 1064 494 1064 493 1064 596 1065 493 1065 492 1065 595 1066 492 1066 565 1066 550 1067 565 1067 517 1067 505 1068 615 1068 529 1068 506 1069 529 1069 530 1069 508 1070 530 1070 531 1070 509 1071 531 1071 611 1071 532 1072 476 1072 620 1072 472 1073 620 1073 619 1073 510 1074 619 1074 617 1074 511 1075 617 1075 473 1075 475 1076 533 1076 600 1076 534 1077 600 1077 476 1077 474 1078 473 1078 606 1078 535 1079 606 1079 536 1079 496 1080 536 1080 604 1080 537 1081 604 1081 538 1081 477 1082 538 1082 539 1082 540 1083 539 1083 603 1083 489 1084 603 1084 616 1084 491 1085 616 1085 478 1085 471 1086 478 1086 615 1086 479 1087 611 1087 541 1087 480 1088 541 1088 542 1088 481 1089 542 1089 599 1089 513 1090 599 1090 543 1090 514 1091 543 1091 482 1091 483 1092 482 1092 544 1092 499 1093 544 1093 545 1093 484 1094 545 1094 594 1094 485 1095 594 1095 610 1095 486 1096 610 1096 546 1096 515 1097 546 1097 608 1097 547 1098 608 1098 548 1098 516 1099 548 1099 549 1099 487 1100 549 1100 488 1100 550 1101 517 1101 609 1101 609 1102 551 1102 607 1102 607 1103 518 1103 552 1103 552 1104 502 1104 553 1104 553 1105 500 1105 613 1105 613 1106 588 1106 625 1106 625 1107 589 1107 554 1107 554 1108 592 1108 519 1108 519 1109 520 1109 631 1109 631 1110 555 1110 623 1110 623 1111 584 1111 556 1111 556 1112 585 1112 622 1112 622 1113 503 1113 628 1113 628 1114 504 1114 521 1114 521 1115 498 1115 601 1115 601 1116 523 1116 522 1116 522 1117 557 1117 618 1117 618 1118 512 1118 558 1118 558 1119 495 1119 605 1119 605 1120 524 1120 559 1120 559 1121 490 1121 598 1121 598 1122 525 1122 560 1122 560 1123 526 1123 561 1123 561 1124 562 1124 614 1124 614 1125 507 1125 612 1125 612 1126 527 1126 602 1126 602 1127 563 1127 528 1127 528 1128 494 1128 564 1128 564 1129 493 1129 596 1129 596 1130 492 1130 595 1130 595 1131 565 1131 550 1131 582 1132 624 1132 583 1132 583 1133 624 1133 566 1133 583 1134 566 1134 586 1134 586 1135 566 1135 621 1135 586 1136 621 1136 587 1136 587 1137 621 1137 567 1137 587 1138 567 1138 568 1138 568 1139 567 1139 569 1139 568 1140 569 1140 570 1140 570 1141 569 1141 571 1141 570 1142 571 1142 572 1142 572 1143 571 1143 533 1143 572 1144 533 1144 475 1144 497 1145 488 1145 597 1145 497 1146 597 1146 501 1146 501 1147 597 1147 629 1147 501 1148 629 1148 574 1148 574 1149 629 1149 573 1149 574 1150 573 1150 575 1150 575 1151 573 1151 576 1151 575 1152 576 1152 577 1152 577 1153 576 1153 626 1153 577 1154 626 1154 590 1154 590 1155 626 1155 578 1155 590 1156 578 1156 579 1156 579 1157 578 1157 632 1157 579 1158 632 1158 591 1158 591 1159 632 1159 580 1159 591 1160 580 1160 581 1160 581 1161 580 1161 630 1161 581 1162 630 1162 593 1162 593 1163 630 1163 627 1163 593 1164 627 1164 582 1164 582 1165 627 1165 624 1165 593 1166 582 1166 555 1166 555 1167 582 1167 583 1167 555 1168 583 1168 584 1168 584 1169 583 1169 586 1169 584 1170 586 1170 585 1170 585 1171 586 1171 587 1171 585 1172 587 1172 568 1172 592 1173 589 1173 579 1173 568 1174 570 1174 503 1174 503 1175 570 1175 572 1175 501 1176 574 1176 500 1176 500 1177 574 1177 575 1177 588 1178 575 1178 577 1178 588 1179 577 1179 589 1179 589 1180 577 1180 590 1180 589 1181 590 1181 579 1181 579 1182 591 1182 592 1182 592 1183 591 1183 581 1183 592 1184 581 1184 520 1184 520 1185 581 1185 593 1185 520 1186 593 1186 555 1186 610 1187 594 1187 550 1187 550 1188 594 1188 545 1188 550 1189 545 1189 595 1189 595 1190 545 1190 544 1190 595 1191 544 1191 596 1191 596 1192 544 1192 482 1192 596 1193 482 1193 543 1193 553 1194 613 1194 597 1194 564 1195 596 1195 543 1195 550 1196 609 1196 610 1196 567 1197 622 1197 628 1197 561 1198 616 1198 560 1198 560 1199 616 1199 603 1199 560 1200 603 1200 598 1200 552 1201 553 1201 488 1201 488 1202 553 1202 597 1202 528 1203 564 1203 599 1203 599 1204 564 1204 543 1204 522 1205 476 1205 601 1205 601 1206 476 1206 600 1206 601 1207 600 1207 521 1207 599 1208 542 1208 528 1208 528 1209 542 1209 541 1209 528 1210 541 1210 602 1210 603 1211 539 1211 598 1211 598 1212 539 1212 538 1212 598 1213 538 1213 559 1213 559 1214 538 1214 604 1214 559 1215 604 1215 605 1215 605 1216 604 1216 536 1216 558 1217 605 1217 606 1217 606 1218 605 1218 536 1218 488 1219 549 1219 552 1219 552 1220 549 1220 548 1220 552 1221 548 1221 607 1221 607 1222 548 1222 608 1222 607 1223 608 1223 609 1223 609 1224 608 1224 546 1224 609 1225 546 1225 610 1225 600 1226 533 1226 521 1226 521 1227 533 1227 571 1227 521 1228 571 1228 628 1228 541 1229 611 1229 602 1229 602 1230 611 1230 531 1230 602 1231 531 1231 612 1231 612 1232 531 1232 530 1232 612 1233 530 1233 614 1233 625 1234 573 1234 613 1234 530 1235 529 1235 614 1235 614 1236 529 1236 615 1236 614 1237 615 1237 561 1237 561 1238 615 1238 478 1238 561 1239 478 1239 616 1239 606 1240 473 1240 558 1240 558 1241 473 1241 617 1241 558 1242 617 1242 618 1242 618 1243 617 1243 619 1243 618 1244 619 1244 522 1244 522 1245 619 1245 620 1245 522 1246 620 1246 476 1246 554 1247 519 1247 578 1247 566 1248 556 1248 621 1248 621 1249 556 1249 622 1249 621 1250 622 1250 567 1250 623 1251 556 1251 624 1251 624 1252 556 1252 566 1252 625 1253 554 1253 626 1253 626 1254 554 1254 578 1254 631 1255 623 1255 627 1255 627 1256 623 1256 624 1256 628 1257 571 1257 569 1257 628 1258 569 1258 567 1258 626 1259 576 1259 625 1259 625 1260 576 1260 573 1260 613 1261 573 1261 629 1261 613 1262 629 1262 597 1262 627 1263 630 1263 631 1263 631 1264 630 1264 580 1264 631 1265 580 1265 519 1265 519 1266 580 1266 632 1266 519 1267 632 1267 578 1267</p>
                </triangles>
            </mesh>
        </geometry>
    </library_geometries>
    <library_visual_scenes>
        <visual_scene id="VisualSceneNode" name="VisualScene">
            <node id="node" name="node">
                <instance_geometry url="#shape0-lib">
                    <bind_material>
                        <technique_common/>
                    </bind_material>
                </instance_geometry>
            </node>
        </visual_scene>
    </library_visual_scenes>
    <scene>
        <instance_visual_scene url="#VisualSceneNode"/>
    </scene>
</COLLADA>
